simulation/qsim/uart.msim.vcd
$comment
	File created using the following command:
		vcd file uart.msim.vcd -direction
$end
$date
	Thu Jun 11 02:09:51 2026
$end
$version
	ModelSim Version 10.5b
$end
$timescale
	1ps
$end

$scope module top_vlg_vec_tst $end
$var reg 1 ! clk $end
$var reg 4 " data_in [3:0] $end
$var reg 1 # data_ready $end
$var reg 1 $ noise $end
$var reg 1 % reset $end
$var reg 1 & zero $end
$var wire 1 ' baud_tick $end
$var wire 1 ( data_out [3] $end
$var wire 1 ) data_out [2] $end
$var wire 1 * data_out [1] $end
$var wire 1 + data_out [0] $end
$var wire 1 , rx_cnt [2] $end
$var wire 1 - rx_cnt [1] $end
$var wire 1 . rx_cnt [0] $end
$var wire 1 / tx_cnt [2] $end
$var wire 1 0 tx_cnt [1] $end
$var wire 1 1 tx_cnt [0] $end
$var wire 1 2 tx_sel [1] $end
$var wire 1 3 tx_sel [0] $end
$var wire 1 4 tx_serial $end

$scope module i1 $end
$var wire 1 5 gnd $end
$var wire 1 6 vcc $end
$var wire 1 7 unknown $end
$var tri1 1 8 devclrn $end
$var tri1 1 9 devpor $end
$var tri1 1 : devoe $end
$var wire 1 ; clk~input_o $end
$var wire 1 < clk~inputCLKENA0_outclk $end
$var wire 1 = reset~input_o $end
$var wire 1 > inst5|inst1|LPM_COUNTER_component|auto_generated|counter_comb_bita0~sumout $end
$var wire 1 ? ~GND~combout $end
$var wire 1 @ inst5|inst|tx_state_start~0_combout $end
$var wire 1 A inst5|inst1|LPM_COUNTER_component|auto_generated|counter_comb_bita1~COUT $end
$var wire 1 B inst5|inst1|LPM_COUNTER_component|auto_generated|counter_comb_bita2~sumout $end
$var wire 1 C inst|lpm_counter_13|LPM_COUNTER_component|auto_generated|counter_comb_bita0~sumout $end
$var wire 1 D inst|lpm_counter_13|LPM_COUNTER_component|auto_generated|counter_comb_bita0~COUT $end
$var wire 1 E inst|lpm_counter_13|LPM_COUNTER_component|auto_generated|counter_comb_bita1~sumout $end
$var wire 1 F inst|lpm_counter_13|LPM_COUNTER_component|auto_generated|counter_comb_bita1~COUT $end
$var wire 1 G inst|lpm_counter_13|LPM_COUNTER_component|auto_generated|counter_comb_bita2~sumout $end
$var wire 1 H inst|lpm_counter_13|LPM_COUNTER_component|auto_generated|counter_comb_bita2~COUT $end
$var wire 1 I inst|lpm_counter_13|LPM_COUNTER_component|auto_generated|counter_comb_bita3~sumout $end
$var wire 1 J inst|lpm_counter_13|LPM_COUNTER_component|auto_generated|counter_comb_bita3~COUT $end
$var wire 1 K inst|lpm_counter_13|LPM_COUNTER_component|auto_generated|counter_comb_bita4~sumout $end
$var wire 1 L inst|lpm_counter_13|LPM_COUNTER_component|auto_generated|counter_comb_bita4~COUT $end
$var wire 1 M inst|lpm_counter_13|LPM_COUNTER_component|auto_generated|counter_comb_bita5~sumout $end
$var wire 1 N inst|lpm_counter_13|LPM_COUNTER_component|auto_generated|counter_comb_bita5~COUT $end
$var wire 1 O inst|lpm_counter_13|LPM_COUNTER_component|auto_generated|counter_comb_bita6~sumout $end
$var wire 1 P inst|inst5~1_combout $end
$var wire 1 Q inst|lpm_counter_13|LPM_COUNTER_component|auto_generated|counter_comb_bita6~COUT $end
$var wire 1 R inst|lpm_counter_13|LPM_COUNTER_component|auto_generated|counter_comb_bita7~sumout $end
$var wire 1 S inst|lpm_counter_13|LPM_COUNTER_component|auto_generated|counter_comb_bita7~COUT $end
$var wire 1 T inst|lpm_counter_13|LPM_COUNTER_component|auto_generated|counter_comb_bita8~sumout $end
$var wire 1 U inst|lpm_counter_13|LPM_COUNTER_component|auto_generated|counter_comb_bita8~COUT $end
$var wire 1 V inst|lpm_counter_13|LPM_COUNTER_component|auto_generated|counter_comb_bita9~sumout $end
$var wire 1 W inst|lpm_counter_13|LPM_COUNTER_component|auto_generated|counter_comb_bita9~COUT $end
$var wire 1 X inst|lpm_counter_13|LPM_COUNTER_component|auto_generated|counter_comb_bita10~sumout $end
$var wire 1 Y inst|lpm_counter_13|LPM_COUNTER_component|auto_generated|counter_comb_bita10~COUT $end
$var wire 1 Z inst|lpm_counter_13|LPM_COUNTER_component|auto_generated|counter_comb_bita11~sumout $end
$var wire 1 [ inst|lpm_counter_13|LPM_COUNTER_component|auto_generated|counter_comb_bita11~COUT $end
$var wire 1 \ inst|lpm_counter_13|LPM_COUNTER_component|auto_generated|counter_comb_bita12~sumout $end
$var wire 1 ] inst|inst5~0_combout $end
$var wire 1 ^ inst|inst5~combout $end
$var wire 1 _ inst|inst8~q $end
$var wire 1 ` inst5|inst|Selector1~0_combout $end
$var wire 1 a inst5|inst|fstate.DATA~q $end
$var wire 1 b inst5|inst1|LPM_COUNTER_component|auto_generated|_~0_combout $end
$var wire 1 c inst5|inst1|LPM_COUNTER_component|auto_generated|counter_comb_bita2~COUT $end
$var wire 1 d inst5|inst1|LPM_COUNTER_component|auto_generated|counter_comb_bita2~1_sumout $end
$var wire 1 e inst5|inst1|LPM_COUNTER_component|auto_generated|cout_actual~combout $end
$var wire 1 f inst5|inst1|LPM_COUNTER_component|auto_generated|counter_comb_bita0~COUT $end
$var wire 1 g inst5|inst1|LPM_COUNTER_component|auto_generated|counter_comb_bita1~sumout $end
$var wire 1 h inst5|inst|Selector3~0_combout $end
$var wire 1 i inst5|inst|fstate.STOP~q $end
$var wire 1 j data_ready~input_o $end
$var wire 1 k inst5|inst|reg_fstate.IDLE~0_combout $end
$var wire 1 l inst5|inst|fstate.IDLE~q $end
$var wire 1 m inst5|inst|Selector0~0_combout $end
$var wire 1 n inst5|inst|fstate.START~0_combout $end
$var wire 1 o inst5|inst|fstate.START~q $end
$var wire 1 p inst5|inst40~combout $end
$var wire 1 q data_in[1]~input_o $end
$var wire 1 r inst5|inst19~q $end
$var wire 1 s data_in[3]~input_o $end
$var wire 1 t inst5|inst21~q $end
$var wire 1 u inst5|inst13|LPM_MUX_component|auto_generated|l2_w0_n0_mux_dataout~0_combout $end
$var wire 1 v data_in[2]~input_o $end
$var wire 1 w inst5|inst20~q $end
$var wire 1 x data_in[0]~input_o $end
$var wire 1 y inst5|inst6~feeder_combout $end
$var wire 1 z inst5|inst6~q $end
$var wire 1 { inst5|inst22|LPM_MUX_component|auto_generated|l2_w0_n0_mux_dataout~0_combout $end
$var wire 1 | inst5|inst13|LPM_MUX_component|auto_generated|l2_w0_n0_mux_dataout~1_combout $end
$var wire 1 } inst5|inst13|LPM_MUX_component|auto_generated|l2_w0_n0_mux_dataout~2_combout $end
$var wire 1 ~ inst3|inst26|LPM_COUNTER_component|auto_generated|counter_comb_bita0~sumout $end
$var wire 1 !! noise~input_o $end
$var wire 1 "! inst3|inst26|LPM_COUNTER_component|auto_generated|counter_comb_bita1~COUT $end
$var wire 1 #! inst3|inst26|LPM_COUNTER_component|auto_generated|counter_comb_bita2~sumout $end
$var wire 1 $! inst3|inst26|LPM_COUNTER_component|auto_generated|counter_comb_bita2~COUT $end
$var wire 1 %! inst3|inst26|LPM_COUNTER_component|auto_generated|counter_comb_bita2~1_sumout $end
$var wire 1 &! inst3|inst26|LPM_COUNTER_component|auto_generated|cout_actual~combout $end
$var wire 1 '! inst3|inst26|LPM_COUNTER_component|auto_generated|_~0_combout $end
$var wire 1 (! inst3|inst|Selector2~0_combout $end
$var wire 1 )! inst3|inst|fstate.DATA~q $end
$var wire 1 *! inst3|inst|Selector3~0_combout $end
$var wire 1 +! inst3|inst|fstate.STOP~q $end
$var wire 1 ,! inst5|inst13|LPM_MUX_component|auto_generated|l2_w0_n0_mux_dataout~3_combout $end
$var wire 1 -! inst3|inst|reg_fstate.IDLE~0_combout $end
$var wire 1 .! inst3|inst|fstate.IDLE~q $end
$var wire 1 /! inst3|inst|Selector1~0_combout $end
$var wire 1 0! inst3|inst|fstate.START~q $end
$var wire 1 1! inst3|inst|clear_bit_index~0_combout $end
$var wire 1 2! inst3|inst26|LPM_COUNTER_component|auto_generated|counter_comb_bita0~COUT $end
$var wire 1 3! inst3|inst26|LPM_COUNTER_component|auto_generated|counter_comb_bita1~sumout $end
$var wire 1 4! inst3|AND2~combout $end
$var wire 1 5! inst1~combout $end
$var wire 1 6! inst3|inst35~feeder_combout $end
$var wire 1 7! inst3|inst35~q $end
$var wire 1 8! zero~input_o $end
$var wire 1 9! inst3|AND1~combout $end
$var wire 1 :! inst3|inst34~feeder_combout $end
$var wire 1 ;! inst3|inst34~q $end
$var wire 1 <! inst3|AND4~combout $end
$var wire 1 =! inst3|inst30~feeder_combout $end
$var wire 1 >! inst3|inst30~q $end
$var wire 1 ?! inst3|AND5~combout $end
$var wire 1 @! inst3|inst31~feeder_combout $end
$var wire 1 A! inst3|inst31~q $end
$var wire 1 B! inst3|inst39~combout $end
$var wire 1 C! inst3|AND6~combout $end
$var wire 1 D! inst3|inst32~feeder_combout $end
$var wire 1 E! inst3|inst32~q $end
$var wire 1 F! inst3|AND~combout $end
$var wire 1 G! inst3|inst33~feeder_combout $end
$var wire 1 H! inst3|inst33~q $end
$var wire 1 I! inst3|inst40~0_combout $end
$var wire 1 J! inst3|AND3~combout $end
$var wire 1 K! inst3|inst29~feeder_combout $end
$var wire 1 L! inst3|inst29~q $end
$var wire 1 M! inst3|inst38~combout $end
$var wire 1 N! inst3|inst7~combout $end
$var wire 1 O! inst3|inst10~combout $end
$var wire 1 P! inst3|inst9~combout $end
$var wire 1 Q! inst3|inst8~combout $end
$var wire 1 R! inst5|inst|tx_state_data~0_combout $end
$var wire 1 S! inst5|inst1|LPM_COUNTER_component|auto_generated|counter_reg_bit [2] $end
$var wire 1 T! inst5|inst1|LPM_COUNTER_component|auto_generated|counter_reg_bit [1] $end
$var wire 1 U! inst5|inst1|LPM_COUNTER_component|auto_generated|counter_reg_bit [0] $end
$var wire 1 V! inst|lpm_counter_13|LPM_COUNTER_component|auto_generated|counter_reg_bit [12] $end
$var wire 1 W! inst|lpm_counter_13|LPM_COUNTER_component|auto_generated|counter_reg_bit [11] $end
$var wire 1 X! inst|lpm_counter_13|LPM_COUNTER_component|auto_generated|counter_reg_bit [10] $end
$var wire 1 Y! inst|lpm_counter_13|LPM_COUNTER_component|auto_generated|counter_reg_bit [9] $end
$var wire 1 Z! inst|lpm_counter_13|LPM_COUNTER_component|auto_generated|counter_reg_bit [8] $end
$var wire 1 [! inst|lpm_counter_13|LPM_COUNTER_component|auto_generated|counter_reg_bit [7] $end
$var wire 1 \! inst|lpm_counter_13|LPM_COUNTER_component|auto_generated|counter_reg_bit [6] $end
$var wire 1 ]! inst|lpm_counter_13|LPM_COUNTER_component|auto_generated|counter_reg_bit [5] $end
$var wire 1 ^! inst|lpm_counter_13|LPM_COUNTER_component|auto_generated|counter_reg_bit [4] $end
$var wire 1 _! inst|lpm_counter_13|LPM_COUNTER_component|auto_generated|counter_reg_bit [3] $end
$var wire 1 `! inst|lpm_counter_13|LPM_COUNTER_component|auto_generated|counter_reg_bit [2] $end
$var wire 1 a! inst|lpm_counter_13|LPM_COUNTER_component|auto_generated|counter_reg_bit [1] $end
$var wire 1 b! inst|lpm_counter_13|LPM_COUNTER_component|auto_generated|counter_reg_bit [0] $end
$var wire 1 c! inst3|inst26|LPM_COUNTER_component|auto_generated|counter_reg_bit [2] $end
$var wire 1 d! inst3|inst26|LPM_COUNTER_component|auto_generated|counter_reg_bit [1] $end
$var wire 1 e! inst3|inst26|LPM_COUNTER_component|auto_generated|counter_reg_bit [0] $end
$upscope $end
$upscope $end
$enddefinitions $end
#0
$dumpvars
0!
b1010 "
0#
0$
1%
0&
0'
0+
0*
0)
0(
0.
0-
0,
01
00
0/
03
02
14
05
16
x7
18
19
1:
0;
0<
1=
1>
0?
0@
0A
0B
1C
0D
0E
0F
0G
0H
0I
0J
0K
0L
0M
0N
0O
0P
0Q
0R
0S
0T
0U
0V
0W
0X
0Y
0Z
0[
0\
1]
0^
0_
0`
0a
0b
0c
0d
0e
0f
0g
0h
0i
0j
0k
0l
0m
1n
0o
0p
1q
0r
1s
0t
0u
0v
0w
0x
0y
0z
0{
0|
1}
1~
0!!
0"!
0#!
0$!
0%!
0&!
0'!
0(!
0)!
0*!
0+!
1,!
0-!
0.!
0/!
00!
01!
02!
03!
04!
15!
16!
07!
08!
09!
1:!
0;!
0<!
1=!
0>!
0?!
1@!
0A!
0B!
0C!
1D!
0E!
0F!
1G!
0H!
0I!
0J!
1K!
0L!
0M!
0N!
0O!
0P!
0Q!
0R!
0U!
0T!
0S!
0b!
0a!
0`!
0_!
0^!
0]!
0\!
0[!
0Z!
0Y!
0X!
0W!
0V!
0e!
0d!
0c!
$end
#5000
1!
1;
1<
#10000
0!
0;
0<
#15000
1!
1;
1<
#20000
1#
0%
0!
1j
0=
0;
0<
0n
1p
1m
1t
1r
#25000
1!
1;
1<
1b!
1D
0C
1E
#30000
0!
0;
0<
#35000
1!
1;
1<
1a!
0b!
0D
1F
1C
0E
0F
1E
1G
0G
#40000
0!
0;
0<
#45000
1!
1;
1<
1b!
1D
0C
1F
0E
1G
#50000
0!
0;
0<
#55000
1!
1;
1<
1`!
0a!
0b!
0D
0F
1H
1C
1E
0G
0H
0E
1G
1I
0I
#60000
0!
0;
0<
#65000
1!
1;
1<
1b!
1D
0C
1E
#70000
0!
0;
0<
#75000
1!
1;
1<
1a!
0b!
0D
1F
1C
0E
0F
1H
1E
0G
0H
1G
1I
0I
#80000
0!
0;
0<
#85000
1!
1;
1<
1b!
1D
0C
1F
0E
1H
0G
1I
#90000
0!
0;
0<
#95000
1!
1;
1<
1_!
0`!
0a!
0b!
0D
0F
1P
0H
1J
1C
1E
1G
0I
0J
0E
0G
1I
1K
0K
#100000
0!
0;
0<
#105000
1!
1;
1<
1b!
1^
1D
0C
1E
#110000
0!
0;
0<
#115000
1!
1;
1<
0_!
0b!
1_
1'
0^
0D
0P
1n
1C
0I
1k
0E
#120000
0!
0;
0<
#125000
1!
1;
1<
1o
1l
1b!
0_
0'
1D
0,!
1b
0n
0C
0p
0m
0}
1@
13
04
05!
1E
1/!
1-!
0K!
0G!
0D!
0@!
0=!
0:!
06!
#130000
0!
0;
0<
#135000
1!
1;
1<
10!
1.!
1a!
0b!
0D
1F
11!
1'!
1C
0E
0F
1E
1G
0G
#140000
0!
0;
0<
#145000
1!
1;
1<
1b!
1D
0C
1F
0E
1G
#150000
0!
0;
0<
#155000
1!
1;
1<
1`!
0a!
0b!
0D
0F
1H
1C
1E
0G
0H
0E
1G
1I
0I
#160000
0!
0;
0<
#165000
1!
1;
1<
1b!
1D
0C
1E
#170000
0!
0;
0<
#175000
1!
1;
1<
1a!
0b!
0D
1F
1C
0E
0F
1H
1E
0G
0H
1G
1I
0I
#180000
0!
0;
0<
#185000
1!
1;
1<
1b!
1D
0C
1F
0E
1H
0G
1I
#190000
0!
0;
0<
#195000
1!
1;
1<
1_!
0`!
0a!
0b!
0D
0F
1P
0H
1J
1C
1E
1G
0I
0J
0E
0G
1I
1K
0K
#200000
0#
0!
0j
0;
0<
#205000
1!
1;
1<
1b!
1^
1D
0C
1E
#210000
0!
0;
0<
#215000
1!
1;
1<
0_!
0b!
1_
1'
0^
0D
0P
1n
1C
0I
0/!
1(!
1`
0E
#220000
0!
0;
0<
#225000
1!
1;
1<
00!
1)!
0o
1a
1b!
0_
0'
1D
1|
0b
1,!
0'!
01!
0n
0C
1R!
1}
0@
03
14
12
15!
0,!
1E
0}
04
05!
1K!
1G!
1D!
1@!
1=!
1:!
16!
0K!
0G!
0D!
0@!
0=!
0:!
06!
#230000
0!
0;
0<
#235000
1!
1;
1<
1a!
0b!
0D
1F
1C
0E
0F
1E
1G
0G
#240000
0!
0;
0<
#245000
1!
1;
1<
1b!
1D
0C
1F
0E
1G
#250000
0!
0;
0<
#255000
1!
1;
1<
1`!
0a!
0b!
0D
0F
1H
1C
1E
0G
0H
0E
1G
1I
0I
#260000
0!
0;
0<
#265000
1!
1;
1<
1b!
1D
0C
1E
#270000
0!
0;
0<
#275000
1!
1;
1<
1a!
0b!
0D
1F
1C
0E
0F
1H
1E
0G
0H
1G
1I
0I
#280000
0!
0;
0<
#285000
1!
1;
1<
1b!
1D
0C
1F
0E
1H
0G
1I
#290000
0!
0;
0<
#295000
1!
1;
1<
1_!
0`!
0a!
0b!
0D
0F
1P
0H
1J
1C
1E
1G
0I
0J
0E
0G
1I
1K
0K
#300000
0!
0;
0<
#305000
1!
1;
1<
1b!
1^
1D
0C
1E
#310000
0!
0;
0<
#315000
1!
1;
1<
0_!
0b!
1_
1'
0^
0D
0P
1'!
1n
1b
1C
0I
1J!
0E
#320000
0!
0;
0<
#325000
1!
1;
1<
1e!
1b!
1U!
0_
0'
11
1D
12!
0'!
0n
0b
1{
1f
0C
0J!
0~
0>
1,!
1E
13!
1g
1}
14
15!
1K!
1G!
1D!
1@!
1=!
1:!
16!
#330000
0!
0;
0<
#335000
1!
1;
1<
1a!
0b!
0D
1F
1C
0E
0F
1E
1G
0G
#340000
0!
0;
0<
#345000
1!
1;
1<
1b!
1D
0C
1F
0E
1G
#350000
0!
0;
0<
#355000
1!
1;
1<
1`!
0a!
0b!
0D
0F
1H
1C
1E
0G
0H
0E
1G
1I
0I
#360000
0!
0;
0<
#365000
1!
1;
1<
1b!
1D
0C
1E
#370000
0!
0;
0<
#375000
1!
1;
1<
1a!
0b!
0D
1F
1C
0E
0F
1H
1E
0G
0H
1G
1I
0I
#380000
0!
0;
0<
#385000
1!
1;
1<
1b!
1D
0C
1F
0E
1H
0G
1I
#390000
0!
0;
0<
#395000
1!
1;
1<
1_!
0`!
0a!
0b!
0D
0F
1P
0H
1J
1C
1E
1G
0I
0J
0E
0G
1I
1K
0K
#400000
0!
0;
0<
#405000
1!
1;
1<
1b!
1^
1D
0C
1E
#410000
0!
0;
0<
#415000
1!
1;
1<
0_!
0b!
1_
1'
0^
0D
0P
1'!
1n
1b
1C
0I
1<!
0E
1>!
1B!
1Q!
1+
#420000
0!
0;
0<
#425000
1!
1;
1<
1d!
0e!
1b!
1T!
0U!
0_
0'
01
10
1D
02!
1"!
0'!
0n
0b
0{
0f
1A
0C
0<!
1~
03!
1>
0g
0"!
0A
0,!
1E
13!
1#!
1g
1B
0}
04
05!
0#!
0B
0K!
0G!
0D!
0@!
0=!
0:!
06!
#430000
0!
0;
0<
#435000
1!
1;
1<
1a!
0b!
0D
1F
1C
0E
0F
1E
1G
0G
#440000
0!
0;
0<
#445000
1!
1;
1<
1b!
1D
0C
1F
0E
1G
#450000
0!
0;
0<
#455000
1!
1;
1<
1`!
0a!
0b!
0D
0F
1H
1C
1E
0G
0H
0E
1G
1I
0I
#460000
0!
0;
0<
#465000
1!
1;
1<
1b!
1D
0C
1E
#470000
0!
0;
0<
#475000
1!
1;
1<
1a!
0b!
0D
1F
1C
0E
0F
1H
1E
0G
0H
1G
1I
0I
#480000
0!
0;
0<
#485000
1!
1;
1<
1b!
1D
0C
1F
0E
1H
0G
1I
#490000
0!
0;
0<
#495000
1!
1;
1<
1_!
0`!
0a!
0b!
0D
0F
1P
0H
1J
1C
1E
1G
0I
0J
0E
0G
1I
1K
0K
#500000
0!
0;
0<
#505000
1!
1;
1<
1b!
1^
1D
0C
1E
#510000
0!
0;
0<
#515000
1!
1;
1<
0_!
0b!
1_
1'
0^
0D
0P
1'!
1n
1b
1C
0I
1?!
0E
#520000
0!
0;
0<
#525000
1!
1;
1<
1e!
1b!
1U!
0_
0'
11
1D
12!
0'!
0n
0b
1f
0C
0?!
0~
0>
1"!
1A
1E
03!
0g
1#!
1B
#530000
0!
0;
0<
#535000
1!
1;
1<
1a!
0b!
0D
1F
1C
0E
0F
1E
1G
0G
#540000
0!
0;
0<
#545000
1!
1;
1<
1b!
1D
0C
1F
0E
1G
#550000
0!
0;
0<
#555000
1!
1;
1<
1`!
0a!
0b!
0D
0F
1H
1C
1E
0G
0H
0E
1G
1I
0I
#560000
0!
0;
0<
#565000
1!
1;
1<
1b!
1D
0C
1E
#570000
0!
0;
0<
#575000
1!
1;
1<
1a!
0b!
0D
1F
1C
0E
0F
1H
1E
0G
0H
1G
1I
0I
#580000
0!
0;
0<
#585000
1!
1;
1<
1b!
1D
0C
1F
0E
1H
0G
1I
#590000
0!
0;
0<
#595000
1!
1;
1<
1_!
0`!
0a!
0b!
0D
0F
1P
0H
1J
1C
1E
1G
0I
0J
0E
0G
1I
1K
0K
#600000
0!
0;
0<
#605000
1!
1;
1<
1b!
1^
1D
0C
1E
#610000
0!
0;
0<
#615000
1!
1;
1<
0_!
0b!
1_
1'
0^
0D
0P
1'!
1n
1b
1C
0I
1C!
0E
#620000
0!
0;
0<
#625000
1!
1;
1<
0d!
0e!
1c!
1b!
0T!
0U!
1S!
0_
0'
1/
01
00
1D
1$!
02!
0"!
0'!
0n
0b
1u
1c
0f
0A
0C
0C!
0#!
1~
13!
0B
1>
1g
1%!
0$!
1d
0c
1,!
1E
03!
1#!
0g
1B
1}
14
0%!
0d
15!
1e
1&!
0e
0&!
1K!
1G!
1D!
1@!
1=!
1:!
16!
#630000
0!
0;
0<
#635000
1!
1;
1<
1a!
0b!
0D
1F
1C
0E
0F
1E
1G
0G
#640000
0!
0;
0<
#645000
1!
1;
1<
1b!
1D
0C
1F
0E
1G
#650000
0!
0;
0<
#655000
1!
1;
1<
1`!
0a!
0b!
0D
0F
1H
1C
1E
0G
0H
0E
1G
1I
0I
#660000
0!
0;
0<
#665000
1!
1;
1<
1b!
1D
0C
1E
#670000
0!
0;
0<
#675000
1!
1;
1<
1a!
0b!
0D
1F
1C
0E
0F
1H
1E
0G
0H
1G
1I
0I
#680000
0!
0;
0<
#685000
1!
1;
1<
1b!
1D
0C
1F
0E
1H
0G
1I
#690000
0!
0;
0<
#695000
1!
1;
1<
1_!
0`!
0a!
0b!
0D
0F
1P
0H
1J
1C
1E
1G
0I
0J
0E
0G
1I
1K
0K
#700000
0!
0;
0<
#705000
1!
1;
1<
1b!
1^
1D
0C
1E
#710000
0!
0;
0<
#715000
1!
1;
1<
0_!
0b!
1_
1'
0^
0D
0P
1'!
1n
1b
1C
0I
1F!
0E
1H!
1M!
1I!
1P!
1*
0Q!
0+
#720000
0!
0;
0<
#725000
1!
1;
1<
1e!
1b!
1U!
0_
0'
11
1D
12!
0'!
0n
0b
1{
0u
1f
0C
0F!
0~
0>
0,!
1E
13!
1g
0}
04
05!
0K!
0G!
0D!
0@!
0=!
0:!
06!
#730000
0!
0;
0<
#735000
1!
1;
1<
1a!
0b!
0D
1F
1C
0E
0F
1E
1G
0G
#740000
0!
0;
0<
#745000
1!
1;
1<
1b!
1D
0C
1F
0E
1G
#750000
0!
0;
0<
#755000
1!
1;
1<
1`!
0a!
0b!
0D
0F
1H
1C
1E
0G
0H
0E
1G
1I
0I
#760000
0!
0;
0<
#765000
1!
1;
1<
1b!
1D
0C
1E
#770000
0!
0;
0<
#775000
1!
1;
1<
1a!
0b!
0D
1F
1C
0E
0F
1H
1E
0G
0H
1G
1I
0I
#780000
0!
0;
0<
#785000
1!
1;
1<
1b!
1D
0C
1F
0E
1H
0G
1I
#790000
0!
0;
0<
#795000
1!
1;
1<
1_!
0`!
0a!
0b!
0D
0F
1P
0H
1J
1C
1E
1G
0I
0J
0E
0G
1I
1K
0K
#800000
0!
0;
0<
#805000
1!
1;
1<
1b!
1^
1D
0C
1E
#810000
0!
0;
0<
#815000
1!
1;
1<
0_!
0b!
1_
1'
0^
0D
0P
1'!
1n
1b
1C
0I
19!
0E
#820000
0!
0;
0<
#825000
1!
1;
1<
1d!
0e!
1b!
1T!
0U!
0_
0'
01
10
1D
1&!
02!
1"!
0'!
0n
0b
0{
1u
1e
0f
1A
0C
09!
1~
03!
1>
0g
0"!
1$!
0A
1c
1,!
1E
13!
0#!
1g
0B
1}
14
0$!
1%!
0c
1d
15!
1#!
1B
0%!
0d
1K!
1G!
1D!
1@!
1=!
1:!
16!
#830000
0!
0;
0<
#835000
1!
1;
1<
1a!
0b!
0D
1F
1C
0E
0F
1E
1G
0G
#840000
0!
0;
0<
#845000
1!
1;
1<
1b!
1D
0C
1F
0E
1G
#850000
0!
0;
0<
#855000
1!
1;
1<
1`!
0a!
0b!
0D
0F
1H
1C
1E
0G
0H
0E
1G
1I
0I
#860000
0!
0;
0<
#865000
1!
1;
1<
1b!
1D
0C
1E
#870000
0!
0;
0<
#875000
1!
1;
1<
1a!
0b!
0D
1F
1C
0E
0F
1H
1E
0G
0H
1G
1I
0I
#880000
0!
0;
0<
#885000
1!
1;
1<
1b!
1D
0C
1F
0E
1H
0G
1I
#890000
0!
0;
0<
#895000
1!
1;
1<
1_!
0`!
0a!
0b!
0D
0F
1P
0H
1J
1C
1E
1G
0I
0J
0E
0G
1I
1K
0K
#900000
0!
0;
0<
#905000
1!
1;
1<
1b!
1^
1D
0C
1E
#910000
0!
0;
0<
#915000
1!
1;
1<
0_!
0b!
1_
1'
0^
0D
0P
1'!
1n
1b
1C
0I
14!
1*!
0(!
1h
0`
0E
17!
0M!
0I!
0B!
1N!
1(
#920000
0!
0;
0<
#925000
1!
1;
1<
0d!
1+!
0)!
0c!
1i
0a
1b!
0T!
0S!
0_
0'
0/
00
1D
0|
0b
0&!
0'!
0n
0u
0e
0C
0R!
04!
0#!
03!
0B
0g
02
1E
#930000
0!
0;
0<
#935000
1!
1;
1<
1a!
0b!
0D
1F
1C
0E
0F
1E
1G
0G
#940000
0!
0;
0<
#945000
1!
1;
1<
1b!
1D
0C
1F
0E
1G
#950000
0!
0;
0<
#955000
1!
1;
1<
1`!
0a!
0b!
0D
0F
1H
1C
1E
0G
0H
0E
1G
1I
0I
#960000
0!
0;
0<
#965000
1!
1;
1<
1b!
1D
0C
1E
#970000
0!
0;
0<
#975000
1!
1;
1<
1a!
0b!
0D
1F
1C
0E
0F
1H
1E
0G
0H
1G
1I
0I
#980000
0!
0;
0<
#985000
1!
1;
1<
1b!
1D
0C
1F
0E
1H
0G
1I
#990000
0!
0;
0<
#995000
1!
1;
1<
1_!
0`!
0a!
0b!
0D
0F
1P
0H
1J
1C
1E
1G
0I
0J
0E
0G
1I
1K
0K
#1000000
0!
0;
0<
#1005000
1!
1;
1<
1b!
1^
1D
0C
1E
#1010000
0!
0;
0<
#1015000
1!
1;
1<
0_!
0b!
1_
1'
0^
0D
0P
1n
1C
0I
0-!
0*!
0k
0h
0E
#1020000
0!
0;
0<
#1025000
1!
1;
1<
0.!
0+!
0l
0i
1b!
0_
0'
1D
0n
0C
1E
#1030000
0!
0;
0<
#1035000
1!
1;
1<
1a!
0b!
0D
1F
1C
0E
0F
1E
1G
0G
#1040000
0!
0;
0<
#1045000
1!
1;
1<
1b!
1D
0C
1F
0E
1G
#1050000
0!
0;
0<
#1055000
1!
1;
1<
1`!
0a!
0b!
0D
0F
1H
1C
1E
0G
0H
0E
1G
1I
0I
#1060000
0!
0;
0<
#1065000
1!
1;
1<
1b!
1D
0C
1E
#1070000
0!
0;
0<
#1075000
1!
1;
1<
1a!
0b!
0D
1F
1C
0E
0F
1H
1E
0G
0H
1G
1I
0I
#1080000
0!
0;
0<
#1085000
1!
1;
1<
1b!
1D
0C
1F
0E
1H
0G
1I
#1090000
0!
0;
0<
#1095000
1!
1;
1<
1_!
0`!
0a!
0b!
0D
0F
1P
0H
1J
1C
1E
1G
0I
0J
0E
0G
1I
1K
0K
#1100000
0!
0;
0<
#1105000
1!
1;
1<
1b!
1^
1D
0C
1E
#1110000
0!
0;
0<
#1115000
1!
1;
1<
0_!
0b!
1_
1'
0^
0D
0P
1n
1C
0I
0E
#1120000
0!
0;
0<
#1125000
1!
1;
1<
1b!
0_
0'
1D
0n
0C
1E
#1130000
0!
0;
0<
#1135000
1!
1;
1<
1a!
0b!
0D
1F
1C
0E
0F
1E
1G
0G
#1140000
0!
0;
0<
#1145000
1!
1;
1<
1b!
1D
0C
1F
0E
1G
#1150000
0!
0;
0<
#1155000
1!
1;
1<
1`!
0a!
0b!
0D
0F
1H
1C
1E
0G
0H
0E
1G
1I
0I
#1160000
0!
0;
0<
#1165000
1!
1;
1<
1b!
1D
0C
1E
#1170000
0!
0;
0<
#1175000
1!
1;
1<
1a!
0b!
0D
1F
1C
0E
0F
1H
1E
0G
0H
1G
1I
0I
#1180000
0!
0;
0<
#1185000
1!
1;
1<
1b!
1D
0C
1F
0E
1H
0G
1I
#1190000
0!
0;
0<
#1195000
1!
1;
1<
1_!
0`!
0a!
0b!
0D
0F
1P
0H
1J
1C
1E
1G
0I
0J
0E
0G
1I
1K
0K
#1200000
0!
0;
0<
#1205000
1!
1;
1<
1b!
1^
1D
0C
1E
#1210000
0!
0;
0<
#1215000
1!
1;
1<
0_!
0b!
1_
1'
0^
0D
0P
1n
1C
0I
0E
#1220000
0!
0;
0<
#1225000
1!
1;
1<
1b!
0_
0'
1D
0n
0C
1E
#1230000
0!
0;
0<
#1235000
1!
1;
1<
1a!
0b!
0D
1F
1C
0E
0F
1E
1G
0G
#1240000
0!
0;
0<
#1245000
1!
1;
1<
1b!
1D
0C
1F
0E
1G
#1250000
0!
0;
0<
#1255000
1!
1;
1<
1`!
0a!
0b!
0D
0F
1H
1C
1E
0G
0H
0E
1G
1I
0I
#1260000
0!
0;
0<
#1265000
1!
1;
1<
1b!
1D
0C
1E
#1270000
0!
0;
0<
#1275000
1!
1;
1<
1a!
0b!
0D
1F
1C
0E
0F
1H
1E
0G
0H
1G
1I
0I
#1280000
0!
0;
0<
#1285000
1!
1;
1<
1b!
1D
0C
1F
0E
1H
0G
1I
#1290000
0!
0;
0<
#1295000
1!
1;
1<
1_!
0`!
0a!
0b!
0D
0F
1P
0H
1J
1C
1E
1G
0I
0J
0E
0G
1I
1K
0K
#1300000
0!
0;
0<
#1305000
1!
1;
1<
1b!
1^
1D
0C
1E
