simulation/qsim/uart.msim.vcd
$comment
	File created using the following command:
		vcd file uart.msim.vcd -direction
$end
$date
	Thu Jun 11 01:53:20 2026
$end
$version
	ModelSim Version 10.5b
$end
$timescale
	1ps
$end

$scope module top_vlg_vec_tst $end
$var reg 1 ! clk $end
$var reg 4 " data_in [3:0] $end
$var reg 1 # data_ready $end
$var reg 1 $ noise $end
$var reg 1 % reset $end
$var reg 1 & zero $end
$var wire 1 ' baud_tick $end
$var wire 1 ( data_out [3] $end
$var wire 1 ) data_out [2] $end
$var wire 1 * data_out [1] $end
$var wire 1 + data_out [0] $end
$var wire 1 , rx_cnt [2] $end
$var wire 1 - rx_cnt [1] $end
$var wire 1 . rx_cnt [0] $end
$var wire 1 / tx_cnt [2] $end
$var wire 1 0 tx_cnt [1] $end
$var wire 1 1 tx_cnt [0] $end
$var wire 1 2 tx_sel [1] $end
$var wire 1 3 tx_sel [0] $end
$var wire 1 4 tx_serial $end

$scope module i1 $end
$var wire 1 5 gnd $end
$var wire 1 6 vcc $end
$var wire 1 7 unknown $end
$var tri1 1 8 devclrn $end
$var tri1 1 9 devpor $end
$var tri1 1 : devoe $end
$var wire 1 ; clk~input_o $end
$var wire 1 < clk~inputCLKENA0_outclk $end
$var wire 1 = inst5|inst1|LPM_COUNTER_component|auto_generated|counter_comb_bita0~sumout $end
$var wire 1 > ~GND~combout $end
$var wire 1 ? reset~input_o $end
$var wire 1 @ data_ready~input_o $end
$var wire 1 A inst|lpm_counter_13|LPM_COUNTER_component|auto_generated|counter_comb_bita0~sumout $end
$var wire 1 B inst|lpm_counter_13|LPM_COUNTER_component|auto_generated|counter_comb_bita0~COUT $end
$var wire 1 C inst|lpm_counter_13|LPM_COUNTER_component|auto_generated|counter_comb_bita1~sumout $end
$var wire 1 D inst|lpm_counter_13|LPM_COUNTER_component|auto_generated|counter_reg_bit[7]~DUPLICATE_q $end
$var wire 1 E inst|lpm_counter_13|LPM_COUNTER_component|auto_generated|counter_comb_bita1~COUT $end
$var wire 1 F inst|lpm_counter_13|LPM_COUNTER_component|auto_generated|counter_comb_bita2~sumout $end
$var wire 1 G inst|lpm_counter_13|LPM_COUNTER_component|auto_generated|counter_comb_bita2~COUT $end
$var wire 1 H inst|lpm_counter_13|LPM_COUNTER_component|auto_generated|counter_comb_bita3~sumout $end
$var wire 1 I inst|lpm_counter_13|LPM_COUNTER_component|auto_generated|counter_comb_bita3~COUT $end
$var wire 1 J inst|lpm_counter_13|LPM_COUNTER_component|auto_generated|counter_comb_bita4~sumout $end
$var wire 1 K inst|lpm_counter_13|LPM_COUNTER_component|auto_generated|counter_comb_bita4~COUT $end
$var wire 1 L inst|lpm_counter_13|LPM_COUNTER_component|auto_generated|counter_comb_bita5~sumout $end
$var wire 1 M inst|lpm_counter_13|LPM_COUNTER_component|auto_generated|counter_comb_bita5~COUT $end
$var wire 1 N inst|lpm_counter_13|LPM_COUNTER_component|auto_generated|counter_comb_bita6~sumout $end
$var wire 1 O inst|lpm_counter_13|LPM_COUNTER_component|auto_generated|counter_comb_bita6~COUT $end
$var wire 1 P inst|lpm_counter_13|LPM_COUNTER_component|auto_generated|counter_comb_bita7~sumout $end
$var wire 1 Q inst|lpm_counter_13|LPM_COUNTER_component|auto_generated|counter_comb_bita7~COUT $end
$var wire 1 R inst|lpm_counter_13|LPM_COUNTER_component|auto_generated|counter_comb_bita8~sumout $end
$var wire 1 S inst|lpm_counter_13|LPM_COUNTER_component|auto_generated|counter_comb_bita8~COUT $end
$var wire 1 T inst|lpm_counter_13|LPM_COUNTER_component|auto_generated|counter_comb_bita9~sumout $end
$var wire 1 U inst|lpm_counter_13|LPM_COUNTER_component|auto_generated|counter_comb_bita9~COUT $end
$var wire 1 V inst|lpm_counter_13|LPM_COUNTER_component|auto_generated|counter_comb_bita10~sumout $end
$var wire 1 W inst|lpm_counter_13|LPM_COUNTER_component|auto_generated|counter_comb_bita10~COUT $end
$var wire 1 X inst|lpm_counter_13|LPM_COUNTER_component|auto_generated|counter_comb_bita11~sumout $end
$var wire 1 Y inst|lpm_counter_13|LPM_COUNTER_component|auto_generated|counter_comb_bita11~COUT $end
$var wire 1 Z inst|lpm_counter_13|LPM_COUNTER_component|auto_generated|counter_comb_bita12~sumout $end
$var wire 1 [ inst|inst5~0_combout $end
$var wire 1 \ inst|inst5~1_combout $end
$var wire 1 ] inst|inst5~combout $end
$var wire 1 ^ inst|inst8~q $end
$var wire 1 _ inst5|inst|Selector1~0_combout $end
$var wire 1 ` inst5|inst|fstate.DATA~q $end
$var wire 1 a inst5|inst|Selector3~0_combout $end
$var wire 1 b inst5|inst|fstate.STOP~q $end
$var wire 1 c inst5|inst|reg_fstate.IDLE~0_combout $end
$var wire 1 d inst5|inst|fstate.IDLE~q $end
$var wire 1 e inst5|inst|Selector0~0_combout $end
$var wire 1 f inst5|inst|fstate.START~0_combout $end
$var wire 1 g inst5|inst|fstate.START~q $end
$var wire 1 h inst5|inst|tx_state_start~0_combout $end
$var wire 1 i inst5|inst1|LPM_COUNTER_component|auto_generated|counter_comb_bita2~COUT $end
$var wire 1 j inst5|inst1|LPM_COUNTER_component|auto_generated|counter_comb_bita2~1_sumout $end
$var wire 1 k inst5|inst1|LPM_COUNTER_component|auto_generated|cout_actual~combout $end
$var wire 1 l inst5|inst1|LPM_COUNTER_component|auto_generated|_~0_combout $end
$var wire 1 m inst5|inst1|LPM_COUNTER_component|auto_generated|counter_comb_bita0~COUT $end
$var wire 1 n inst5|inst1|LPM_COUNTER_component|auto_generated|counter_comb_bita1~sumout $end
$var wire 1 o inst5|inst1|LPM_COUNTER_component|auto_generated|counter_comb_bita1~COUT $end
$var wire 1 p inst5|inst1|LPM_COUNTER_component|auto_generated|counter_comb_bita2~sumout $end
$var wire 1 q inst5|inst40~combout $end
$var wire 1 r data_in[2]~input_o $end
$var wire 1 s inst5|inst20~q $end
$var wire 1 t inst5|inst13|LPM_MUX_component|auto_generated|l2_w0_n0_mux_dataout~1_combout $end
$var wire 1 u data_in[1]~input_o $end
$var wire 1 v inst5|inst19~q $end
$var wire 1 w data_in[3]~input_o $end
$var wire 1 x inst5|inst21~q $end
$var wire 1 y data_in[0]~input_o $end
$var wire 1 z inst5|inst6~q $end
$var wire 1 { inst5|inst22|LPM_MUX_component|auto_generated|l2_w0_n0_mux_dataout~0_combout $end
$var wire 1 | inst5|inst13|LPM_MUX_component|auto_generated|l2_w0_n0_mux_dataout~0_combout $end
$var wire 1 } inst5|inst13|LPM_MUX_component|auto_generated|l2_w0_n0_mux_dataout~2_combout $end
$var wire 1 ~ inst6|inst26|LPM_COUNTER_component|auto_generated|counter_comb_bita0~sumout $end
$var wire 1 !! inst6|inst26|LPM_COUNTER_component|auto_generated|counter_comb_bita1~COUT $end
$var wire 1 "! inst6|inst26|LPM_COUNTER_component|auto_generated|counter_comb_bita2~sumout $end
$var wire 1 #! inst6|inst26|LPM_COUNTER_component|auto_generated|counter_comb_bita2~COUT $end
$var wire 1 $! inst6|inst26|LPM_COUNTER_component|auto_generated|counter_comb_bita2~1_sumout $end
$var wire 1 %! inst6|inst26|LPM_COUNTER_component|auto_generated|cout_actual~combout $end
$var wire 1 &! inst6|inst26|LPM_COUNTER_component|auto_generated|_~0_combout $end
$var wire 1 '! inst6|inst|Selector2~0_combout $end
$var wire 1 (! inst6|inst|fstate.DATA~q $end
$var wire 1 )! inst6|inst|Selector3~0_combout $end
$var wire 1 *! inst6|inst|fstate.STOP~q $end
$var wire 1 +! noise~input_o $end
$var wire 1 ,! inst5|inst13|LPM_MUX_component|auto_generated|l2_w0_n0_mux_dataout~3_combout $end
$var wire 1 -! inst6|inst|reg_fstate.IDLE~0_combout $end
$var wire 1 .! inst6|inst|fstate.IDLE~q $end
$var wire 1 /! inst6|inst|Selector1~0_combout $end
$var wire 1 0! inst6|inst|fstate.START~q $end
$var wire 1 1! inst6|inst|clear_bit_index~0_combout $end
$var wire 1 2! inst6|inst26|LPM_COUNTER_component|auto_generated|counter_comb_bita0~COUT $end
$var wire 1 3! inst6|inst26|LPM_COUNTER_component|auto_generated|counter_comb_bita1~sumout $end
$var wire 1 4! inst6|AND6~combout $end
$var wire 1 5! inst1~combout $end
$var wire 1 6! inst6|inst32~feeder_combout $end
$var wire 1 7! inst6|inst32~q $end
$var wire 1 8! inst6|AND5~combout $end
$var wire 1 9! inst6|inst31~q $end
$var wire 1 :! inst6|AND3~combout $end
$var wire 1 ;! inst6|inst29~feeder_combout $end
$var wire 1 <! inst6|inst29~q $end
$var wire 1 =! inst6|AND2~combout $end
$var wire 1 >! inst6|inst35~feeder_combout $end
$var wire 1 ?! inst6|inst35~q $end
$var wire 1 @! inst6|AND~combout $end
$var wire 1 A! inst6|inst33~q $end
$var wire 1 B! inst6|inst38~combout $end
$var wire 1 C! inst6|AND4~combout $end
$var wire 1 D! inst6|inst30~feeder_combout $end
$var wire 1 E! inst6|inst30~q $end
$var wire 1 F! inst6|AND1~combout $end
$var wire 1 G! inst6|inst34~feeder_combout $end
$var wire 1 H! inst6|inst34~q $end
$var wire 1 I! inst6|inst39~combout $end
$var wire 1 J! inst6|inst40~0_combout $end
$var wire 1 K! zero~input_o $end
$var wire 1 L! inst6|inst7~combout $end
$var wire 1 M! inst6|inst10~combout $end
$var wire 1 N! inst6|inst9~combout $end
$var wire 1 O! inst6|inst8~combout $end
$var wire 1 P! inst5|inst|tx_state_data~0_combout $end
$var wire 1 Q! inst5|inst1|LPM_COUNTER_component|auto_generated|counter_reg_bit [2] $end
$var wire 1 R! inst5|inst1|LPM_COUNTER_component|auto_generated|counter_reg_bit [1] $end
$var wire 1 S! inst5|inst1|LPM_COUNTER_component|auto_generated|counter_reg_bit [0] $end
$var wire 1 T! inst|lpm_counter_13|LPM_COUNTER_component|auto_generated|counter_reg_bit [12] $end
$var wire 1 U! inst|lpm_counter_13|LPM_COUNTER_component|auto_generated|counter_reg_bit [11] $end
$var wire 1 V! inst|lpm_counter_13|LPM_COUNTER_component|auto_generated|counter_reg_bit [10] $end
$var wire 1 W! inst|lpm_counter_13|LPM_COUNTER_component|auto_generated|counter_reg_bit [9] $end
$var wire 1 X! inst|lpm_counter_13|LPM_COUNTER_component|auto_generated|counter_reg_bit [8] $end
$var wire 1 Y! inst|lpm_counter_13|LPM_COUNTER_component|auto_generated|counter_reg_bit [7] $end
$var wire 1 Z! inst|lpm_counter_13|LPM_COUNTER_component|auto_generated|counter_reg_bit [6] $end
$var wire 1 [! inst|lpm_counter_13|LPM_COUNTER_component|auto_generated|counter_reg_bit [5] $end
$var wire 1 \! inst|lpm_counter_13|LPM_COUNTER_component|auto_generated|counter_reg_bit [4] $end
$var wire 1 ]! inst|lpm_counter_13|LPM_COUNTER_component|auto_generated|counter_reg_bit [3] $end
$var wire 1 ^! inst|lpm_counter_13|LPM_COUNTER_component|auto_generated|counter_reg_bit [2] $end
$var wire 1 _! inst|lpm_counter_13|LPM_COUNTER_component|auto_generated|counter_reg_bit [1] $end
$var wire 1 `! inst|lpm_counter_13|LPM_COUNTER_component|auto_generated|counter_reg_bit [0] $end
$var wire 1 a! inst6|inst26|LPM_COUNTER_component|auto_generated|counter_reg_bit [2] $end
$var wire 1 b! inst6|inst26|LPM_COUNTER_component|auto_generated|counter_reg_bit [1] $end
$var wire 1 c! inst6|inst26|LPM_COUNTER_component|auto_generated|counter_reg_bit [0] $end
$upscope $end
$upscope $end
$enddefinitions $end
#0
$dumpvars
0!
b1001 "
0#
0$
1%
0&
0'
0+
0*
0)
0(
0.
0-
0,
01
00
0/
03
02
14
05
16
x7
18
19
1:
0;
0<
1=
0>
1?
0@
1A
0B
0C
0D
0E
0F
0G
0H
0I
0J
0K
0L
0M
0N
0O
0P
0Q
0R
0S
0T
0U
0V
0W
0X
0Y
0Z
1[
0\
0]
0^
0_
0`
0a
0b
0c
0d
0e
1f
0g
0h
0i
0j
0k
0l
0m
0n
0o
0p
0q
0r
0s
0t
0u
0v
1w
0x
1y
0z
0{
0|
1}
1~
0!!
0"!
0#!
0$!
0%!
0&!
0'!
0(!
0)!
0*!
0+!
1,!
0-!
0.!
0/!
00!
01!
02!
03!
04!
15!
16!
07!
08!
09!
0:!
1;!
0<!
0=!
1>!
0?!
0@!
0A!
0B!
0C!
1D!
0E!
0F!
1G!
0H!
0I!
0J!
0K!
0L!
0M!
0N!
0O!
0P!
0S!
0R!
0Q!
0`!
0_!
0^!
0]!
0\!
0[!
0Z!
0Y!
0X!
0W!
0V!
0U!
0T!
0c!
0b!
0a!
$end
#5000
1!
1;
1<
#10000
0!
0;
0<
#15000
1!
1;
1<
#20000
1#
0%
0!
1@
0?
0;
0<
0f
1e
1q
1z
1x
#25000
1!
1;
1<
1`!
1B
0A
1C
#30000
0!
0;
0<
#35000
1!
1;
1<
1_!
0`!
0B
1E
1A
0C
0E
1C
1F
0F
#40000
0!
0;
0<
#45000
1!
1;
1<
1`!
1B
0A
1E
0C
1F
#50000
0!
0;
0<
#55000
1!
1;
1<
1^!
0_!
0`!
0B
0E
1G
1A
1C
0F
0G
0C
1F
1H
0H
#60000
0!
0;
0<
#65000
1!
1;
1<
1`!
1B
0A
1C
#70000
0!
0;
0<
#75000
1!
1;
1<
1_!
0`!
0B
1E
1A
0C
0E
1G
1C
0F
0G
1F
1H
0H
#80000
0!
0;
0<
#85000
1!
1;
1<
1`!
1B
0A
1E
0C
1G
0F
1H
#90000
0!
0;
0<
#95000
1!
1;
1<
1]!
0^!
0_!
0`!
0B
0E
1\
0G
1I
1A
1C
1F
0H
0I
0C
0F
1H
1J
0J
#100000
0!
0;
0<
#105000
1!
1;
1<
1`!
1]
1B
0A
1C
#110000
0!
0;
0<
#115000
1!
1;
1<
0]!
0`!
1^
1'
0]
0B
0\
1f
1A
0H
1c
0C
#120000
0!
0;
0<
#125000
1!
1;
1<
1g
1d
1`!
0^
0'
1B
0e
0,!
1l
0f
0A
0q
0}
1h
13
04
05!
1C
1/!
1-!
0G!
0D!
0>!
0;!
06!
#130000
0!
0;
0<
#135000
1!
1;
1<
10!
1.!
1_!
0`!
0B
1E
11!
1&!
1A
0C
0E
1C
1F
0F
#140000
0!
0;
0<
#145000
1!
1;
1<
1`!
1B
0A
1E
0C
1F
#150000
0!
0;
0<
#155000
1!
1;
1<
1^!
0_!
0`!
0B
0E
1G
1A
1C
0F
0G
0C
1F
1H
0H
#160000
0#
0!
0@
0;
0<
#165000
1!
1;
1<
1`!
1B
0A
1C
#170000
0!
0;
0<
#175000
1!
1;
1<
1_!
0`!
0B
1E
1A
0C
0E
1G
1C
0F
0G
1F
1H
0H
#180000
0!
0;
0<
#185000
1!
1;
1<
1`!
1B
0A
1E
0C
1G
0F
1H
#190000
0!
0;
0<
#195000
1!
1;
1<
1]!
0^!
0_!
0`!
0B
0E
1\
0G
1I
1A
1C
1F
0H
0I
0C
0F
1H
1J
0J
#200000
0!
0;
0<
#205000
1!
1;
1<
1`!
1]
1B
0A
1C
#210000
0!
0;
0<
#215000
1!
1;
1<
0]!
0`!
1^
1'
0]
0B
0\
1f
1A
0H
0/!
1'!
1_
0C
#220000
0!
0;
0<
#225000
1!
1;
1<
00!
1(!
0g
1`
1`!
0^
0'
1B
1t
0l
1,!
0&!
01!
0f
0A
1P!
1}
0h
03
14
12
15!
0,!
1C
0}
04
05!
1G!
1D!
1>!
1;!
16!
0G!
0D!
0>!
0;!
06!
#230000
0!
0;
0<
#235000
1!
1;
1<
1_!
0`!
0B
1E
1A
0C
0E
1C
1F
0F
#240000
0!
0;
0<
#245000
1!
1;
1<
1`!
1B
0A
1E
0C
1F
#250000
0!
0;
0<
#255000
1!
1;
1<
1^!
0_!
0`!
0B
0E
1G
1A
1C
0F
0G
0C
1F
1H
0H
#260000
0!
0;
0<
#265000
1!
1;
1<
1`!
1B
0A
1C
#270000
0!
0;
0<
#275000
1!
1;
1<
1_!
0`!
0B
1E
1A
0C
0E
1G
1C
0F
0G
1F
1H
0H
#280000
0!
0;
0<
#285000
1!
1;
1<
1`!
1B
0A
1E
0C
1G
0F
1H
#290000
0!
0;
0<
#295000
1!
1;
1<
1]!
0^!
0_!
0`!
0B
0E
1\
0G
1I
1A
1C
1F
0H
0I
0C
0F
1H
1J
0J
#300000
0!
0;
0<
#305000
1!
1;
1<
1`!
1]
1B
0A
1C
#310000
0!
0;
0<
#315000
1!
1;
1<
0]!
0`!
1^
1'
0]
0B
0\
1&!
1l
1f
1A
0H
1:!
0C
#320000
0!
0;
0<
#325000
1!
1;
1<
1c!
1`!
1S!
0^
0'
11
1B
12!
0&!
0l
0f
1m
0A
0:!
0~
0=
1C
13!
1n
#330000
0!
0;
0<
#335000
1!
1;
1<
1_!
0`!
0B
1E
1A
0C
0E
1C
1F
0F
#340000
0!
0;
0<
#345000
1!
1;
1<
1`!
1B
0A
1E
0C
1F
#350000
0!
0;
0<
#355000
1!
1;
1<
1^!
0_!
0`!
0B
0E
1G
1A
1C
0F
0G
0C
1F
1H
0H
#360000
0!
0;
0<
#365000
1!
1;
1<
1`!
1B
0A
1C
#370000
0!
0;
0<
#375000
1!
1;
1<
1_!
0`!
0B
1E
1A
0C
0E
1G
1C
0F
0G
1F
1H
0H
#380000
0!
0;
0<
#385000
1!
1;
1<
1`!
1B
0A
1E
0C
1G
0F
1H
#390000
0!
0;
0<
#395000
1!
1;
1<
1]!
0^!
0_!
0`!
0B
0E
1\
0G
1I
1A
1C
1F
0H
0I
0C
0F
1H
1J
0J
#400000
0!
0;
0<
#405000
1!
1;
1<
1`!
1]
1B
0A
1C
#410000
0!
0;
0<
#415000
1!
1;
1<
0]!
0`!
1^
1'
0]
0B
0\
1&!
1l
1f
1A
0H
1C!
0C
#420000
0!
0;
0<
#425000
1!
1;
1<
1b!
0c!
1`!
1R!
0S!
0^
0'
01
10
1B
02!
1!!
0&!
0l
0f
1{
0m
1o
0A
0C!
1~
03!
1=
0n
0!!
0o
1,!
1C
13!
1"!
1n
1p
1}
14
15!
0"!
0p
1G!
1D!
1>!
1;!
16!
#430000
0!
0;
0<
#435000
1!
1;
1<
1_!
0`!
0B
1E
1A
0C
0E
1C
1F
0F
#440000
0!
0;
0<
#445000
1!
1;
1<
1`!
1B
0A
1E
0C
1F
#450000
0!
0;
0<
#455000
1!
1;
1<
1^!
0_!
0`!
0B
0E
1G
1A
1C
0F
0G
0C
1F
1H
0H
#460000
0!
0;
0<
#465000
1!
1;
1<
1`!
1B
0A
1C
#470000
0!
0;
0<
#475000
1!
1;
1<
1_!
0`!
0B
1E
1A
0C
0E
1G
1C
0F
0G
1F
1H
0H
#480000
0!
0;
0<
#485000
1!
1;
1<
1`!
1B
0A
1E
0C
1G
0F
1H
#490000
0!
0;
0<
#495000
1!
1;
1<
1]!
0^!
0_!
0`!
0B
0E
1\
0G
1I
1A
1C
1F
0H
0I
0C
0F
1H
1J
0J
#500000
0!
0;
0<
#505000
1!
1;
1<
1`!
1]
1B
0A
1C
#510000
0!
0;
0<
#515000
1!
1;
1<
0]!
0`!
1^
1'
0]
0B
0\
1&!
1l
1f
1A
0H
18!
0C
19!
1I!
1B!
1O!
1+
#520000
0!
0;
0<
#525000
1!
1;
1<
1c!
1`!
1S!
0^
0'
11
1B
12!
0&!
0l
0f
1m
0A
08!
0~
0=
1!!
1o
1C
03!
0n
1"!
1p
#530000
0!
0;
0<
#535000
1!
1;
1<
1_!
0`!
0B
1E
1A
0C
0E
1C
1F
0F
#540000
0!
0;
0<
#545000
1!
1;
1<
1`!
1B
0A
1E
0C
1F
#550000
0!
0;
0<
#555000
1!
1;
1<
1^!
0_!
0`!
0B
0E
1G
1A
1C
0F
0G
0C
1F
1H
0H
#560000
0!
0;
0<
#565000
1!
1;
1<
1`!
1B
0A
1C
#570000
0!
0;
0<
#575000
1!
1;
1<
1_!
0`!
0B
1E
1A
0C
0E
1G
1C
0F
0G
1F
1H
0H
#580000
0!
0;
0<
#585000
1!
1;
1<
1`!
1B
0A
1E
0C
1G
0F
1H
#590000
0!
0;
0<
#595000
1!
1;
1<
1]!
0^!
0_!
0`!
0B
0E
1\
0G
1I
1A
1C
1F
0H
0I
0C
0F
1H
1J
0J
#600000
0!
0;
0<
#605000
1!
1;
1<
1`!
1]
1B
0A
1C
#610000
0!
0;
0<
#615000
1!
1;
1<
0]!
0`!
1^
1'
0]
0B
0\
1&!
1l
1f
1A
0H
14!
0C
17!
#620000
0!
0;
0<
#625000
1!
1;
1<
0b!
0c!
1a!
1`!
1Q!
0R!
0S!
0^
0'
01
00
1/
1B
1#!
02!
0!!
0&!
0l
0f
0{
0m
0o
0,!
1i
0A
04!
0"!
1~
13!
1=
1n
0}
0p
04
1$!
0#!
0i
1j
05!
1C
03!
1"!
0n
1p
0$!
0j
1k
1%!
0G!
0D!
0>!
0;!
06!
0k
0%!
#630000
0!
0;
0<
#635000
1!
1;
1<
1_!
0`!
0B
1E
1A
0C
0E
1C
1F
0F
#640000
0!
0;
0<
#645000
1!
1;
1<
1`!
1B
0A
1E
0C
1F
#650000
0!
0;
0<
#655000
1!
1;
1<
1^!
0_!
0`!
0B
0E
1G
1A
1C
0F
0G
0C
1F
1H
0H
#660000
0!
0;
0<
#665000
1!
1;
1<
1`!
1B
0A
1C
#670000
0!
0;
0<
#675000
1!
1;
1<
1_!
0`!
0B
1E
1A
0C
0E
1G
1C
0F
0G
1F
1H
0H
#680000
0!
0;
0<
#685000
1!
1;
1<
1`!
1B
0A
1E
0C
1G
0F
1H
#690000
0!
0;
0<
#695000
1!
1;
1<
1]!
0^!
0_!
0`!
0B
0E
1\
0G
1I
1A
1C
1F
0H
0I
0C
0F
1H
1J
0J
#700000
0!
0;
0<
#705000
1!
1;
1<
1`!
1]
1B
0A
1C
#710000
0!
0;
0<
#715000
1!
1;
1<
0]!
0`!
1^
1'
0]
0B
0\
1&!
1l
1f
1A
0H
1@!
0C
#720000
0!
0;
0<
#725000
1!
1;
1<
1c!
1`!
1S!
0^
0'
11
1B
12!
0&!
0l
0f
1m
0A
0@!
0~
0=
1C
13!
1n
#730000
0!
0;
0<
#735000
1!
1;
1<
1_!
0`!
0B
1E
1A
0C
0E
1C
1F
0F
#740000
0!
0;
0<
#745000
1!
1;
1<
1`!
1B
0A
1E
0C
1F
#750000
0!
0;
0<
#755000
1!
1;
1<
1^!
0_!
0`!
0B
0E
1G
1A
1C
0F
0G
0C
1F
1H
0H
#760000
0!
0;
0<
#765000
1!
1;
1<
1`!
1B
0A
1C
#770000
0!
0;
0<
#775000
1!
1;
1<
1_!
0`!
0B
1E
1A
0C
0E
1G
1C
0F
0G
1F
1H
0H
#780000
0!
0;
0<
#785000
1!
1;
1<
1`!
1B
0A
1E
0C
1G
0F
1H
#790000
0!
0;
0<
#795000
1!
1;
1<
1]!
0^!
0_!
0`!
0B
0E
1\
0G
1I
1A
1C
1F
0H
0I
0C
0F
1H
1J
0J
#800000
0!
0;
0<
#805000
1!
1;
1<
1`!
1]
1B
0A
1C
#810000
0!
0;
0<
#815000
1!
1;
1<
0]!
0`!
1^
1'
0]
0B
0\
1&!
1l
1f
1A
0H
1F!
0C
#820000
0!
0;
0<
#825000
1!
1;
1<
1b!
0c!
1`!
1R!
0S!
0^
0'
01
10
1B
1%!
02!
1!!
0&!
0l
0f
1|
1{
1k
0m
1o
0A
0F!
1~
03!
1=
0n
0!!
1#!
0o
1i
1,!
1C
13!
0"!
1n
0p
1}
14
0#!
1$!
0i
1j
15!
1"!
1p
0$!
0j
1G!
1D!
1>!
1;!
16!
#830000
0!
0;
0<
#835000
1!
1;
1<
1_!
0`!
0B
1E
1A
0C
0E
1C
1F
0F
#840000
0!
0;
0<
#845000
1!
1;
1<
1`!
1B
0A
1E
0C
1F
#850000
0!
0;
0<
#855000
1!
1;
1<
1^!
0_!
0`!
0B
0E
1G
1A
1C
0F
0G
0C
1F
1H
0H
#860000
0!
0;
0<
#865000
1!
1;
1<
1`!
1B
0A
1C
#870000
0!
0;
0<
#875000
1!
1;
1<
1_!
0`!
0B
1E
1A
0C
0E
1G
1C
0F
0G
1F
1H
0H
#880000
0!
0;
0<
#885000
1!
1;
1<
1`!
1B
0A
1E
0C
1G
0F
1H
#890000
0!
0;
0<
#895000
1!
1;
1<
1]!
0^!
0_!
0`!
0B
0E
1\
0G
1I
1A
1C
1F
0H
0I
0C
0F
1H
1J
0J
#900000
0!
0;
0<
#905000
1!
1;
1<
1`!
1]
1B
0A
1C
#910000
0!
0;
0<
#915000
1!
1;
1<
0]!
0`!
1^
1'
0]
0B
0\
1&!
1l
1f
1a
1A
0H
1=!
0_
0C
1?!
1J!
0I!
0B!
1L!
1(
#920000
0!
0;
0<
#925000
1!
1;
1<
0b!
0a!
1b
0`
1`!
0Q!
0R!
0^
0'
00
0/
1B
0t
0l
0%!
0&!
0f
0|
0{
0k
0A
0P!
0=!
0"!
03!
0n
0p
02
1C
#930000
0!
0;
0<
#935000
1!
1;
1<
1_!
0`!
0B
1E
1A
0C
0E
1C
1F
0F
#940000
0!
0;
0<
#945000
1!
1;
1<
1`!
1B
0A
1E
0C
1F
#950000
0!
0;
0<
#955000
1!
1;
1<
1^!
0_!
0`!
0B
0E
1G
1A
1C
0F
0G
0C
1F
1H
0H
#960000
0!
0;
0<
#965000
1!
1;
1<
1`!
1B
0A
1C
#970000
0!
0;
0<
#975000
1!
1;
1<
1_!
0`!
0B
1E
1A
0C
0E
1G
1C
0F
0G
1F
1H
0H
#980000
0!
0;
0<
#985000
1!
1;
1<
1`!
1B
0A
1E
0C
1G
0F
1H
#990000
0!
0;
0<
#995000
1!
1;
1<
1]!
0^!
0_!
0`!
0B
0E
1\
0G
1I
1A
1C
1F
0H
0I
0C
0F
1H
1J
0J
#1000000
0!
0;
0<
#1005000
1!
1;
1<
1`!
1]
1B
0A
1C
#1010000
0!
0;
0<
#1015000
1!
1;
1<
0]!
0`!
1^
1'
0]
0B
0\
1&!
1f
0a
1A
0H
1:!
0c
0C
1<!
1B!
#1020000
0!
0;
0<
#1025000
1!
1;
1<
1c!
0d
0b
1`!
0^
0'
1B
12!
0&!
0f
0A
0:!
0~
1C
13!
#1030000
0!
0;
0<
#1035000
1!
1;
1<
1_!
0`!
0B
1E
1A
0C
0E
1C
1F
0F
#1040000
0!
0;
0<
#1045000
1!
1;
1<
1`!
1B
0A
1E
0C
1F
#1050000
0!
0;
0<
#1055000
1!
1;
1<
1^!
0_!
0`!
0B
0E
1G
1A
1C
0F
0G
0C
1F
1H
0H
#1060000
0!
0;
0<
#1065000
1!
1;
1<
1`!
1B
0A
1C
#1070000
0!
0;
0<
#1075000
1!
1;
1<
1_!
0`!
0B
1E
1A
0C
0E
1G
1C
0F
0G
1F
1H
0H
#1080000
0!
0;
0<
#1085000
1!
1;
1<
1`!
1B
0A
1E
0C
1G
0F
1H
#1090000
0!
0;
0<
#1095000
1!
1;
1<
1]!
0^!
0_!
0`!
0B
0E
1\
0G
1I
1A
1C
1F
0H
0I
0C
0F
1H
1J
0J
#1100000
0!
0;
0<
#1105000
1!
1;
1<
1`!
1]
1B
0A
1C
#1110000
0!
0;
0<
#1115000
1!
1;
1<
0]!
0`!
1^
1'
0]
0B
0\
1&!
1f
1A
0H
1C!
0C
1E!
1I!
#1120000
0!
0;
0<
#1125000
1!
1;
1<
1b!
0c!
1`!
0^
0'
1B
02!
1!!
0&!
0f
0A
0C!
1~
03!
0!!
1C
13!
1"!
0"!
#1130000
0!
0;
0<
#1135000
1!
1;
1<
1_!
0`!
0B
1E
1A
0C
0E
1C
1F
0F
#1140000
0!
0;
0<
#1145000
1!
1;
1<
1`!
1B
0A
1E
0C
1F
#1150000
0!
0;
0<
#1155000
1!
1;
1<
1^!
0_!
0`!
0B
0E
1G
1A
1C
0F
0G
0C
1F
1H
0H
#1160000
0!
0;
0<
#1165000
1!
1;
1<
1`!
1B
0A
1C
#1170000
0!
0;
0<
#1175000
1!
1;
1<
1_!
0`!
0B
1E
1A
0C
0E
1G
1C
0F
0G
1F
1H
0H
#1180000
0!
0;
0<
#1185000
1!
1;
1<
1`!
1B
0A
1E
0C
1G
0F
1H
#1190000
0!
0;
0<
#1195000
1!
1;
1<
1]!
0^!
0_!
0`!
0B
0E
1\
0G
1I
1A
1C
1F
0H
0I
0C
0F
1H
1J
0J
#1200000
0!
0;
0<
#1205000
1!
1;
1<
1`!
1]
1B
0A
1C
#1210000
0!
0;
0<
#1215000
1!
1;
1<
0]!
0`!
1^
1'
0]
0B
0\
1&!
1f
1A
0H
18!
0C
#1220000
0!
0;
0<
#1225000
1!
1;
1<
1c!
1`!
0^
0'
1B
12!
0&!
0f
0A
08!
0~
1!!
1C
03!
1"!
#1230000
0!
0;
0<
#1235000
1!
1;
1<
1_!
0`!
0B
1E
1A
0C
0E
1C
1F
0F
#1240000
0!
0;
0<
#1245000
1!
1;
1<
1`!
1B
0A
1E
0C
1F
#1250000
0!
0;
0<
#1255000
1!
1;
1<
1^!
0_!
0`!
0B
0E
1G
1A
1C
0F
0G
0C
1F
1H
0H
#1260000
0!
0;
0<
#1265000
1!
1;
1<
1`!
1B
0A
1C
#1270000
0!
0;
0<
#1275000
1!
1;
1<
1_!
0`!
0B
1E
1A
0C
0E
1G
1C
0F
0G
1F
1H
0H
#1280000
0!
0;
0<
#1285000
1!
1;
1<
1`!
1B
0A
1E
0C
1G
0F
1H
#1290000
0!
0;
0<
#1295000
1!
1;
1<
1]!
0^!
0_!
0`!
0B
0E
1\
0G
1I
1A
1C
1F
0H
0I
0C
0F
1H
1J
0J
#1300000
0!
0;
0<
#1305000
1!
1;
1<
1`!
1]
1B
0A
1C
#1310000
0!
0;
0<
#1315000
1!
1;
1<
0]!
0`!
1^
1'
0]
0B
0\
1&!
1f
1A
0H
14!
0C
#1320000
0!
0;
0<
