simulation/qsim/uart.msim.vcd
$comment
	File created using the following command:
		vcd file uart.msim.vcd -direction
$end
$date
	Mon Jun 08 20:52:22 2026
$end
$version
	ModelSim Version 10.5b
$end
$timescale
	1ps
$end

$scope module top_vlg_vec_tst $end
$var reg 1 ! clk $end
$var reg 8 " data_in [7:0] $end
$var reg 1 # data_ready $end
$var reg 1 $ reset $end
$var wire 1 % baud_tick $end
$var wire 1 & data_out [7] $end
$var wire 1 ' data_out [6] $end
$var wire 1 ( data_out [5] $end
$var wire 1 ) data_out [4] $end
$var wire 1 * data_out [3] $end
$var wire 1 + data_out [2] $end
$var wire 1 , data_out [1] $end
$var wire 1 - data_out [0] $end
$var wire 1 . rx_cnt [2] $end
$var wire 1 / rx_cnt [1] $end
$var wire 1 0 rx_cnt [0] $end
$var wire 1 1 tx_cmt [2] $end
$var wire 1 2 tx_cmt [1] $end
$var wire 1 3 tx_cmt [0] $end
$var wire 1 4 tx_sel [1] $end
$var wire 1 5 tx_sel [0] $end
$var wire 1 6 tx_serial $end

$scope module i1 $end
$var wire 1 7 gnd $end
$var wire 1 8 vcc $end
$var wire 1 9 unknown $end
$var tri1 1 : devclrn $end
$var tri1 1 ; devpor $end
$var tri1 1 < devoe $end
$var wire 1 = ~QUARTUS_CREATED_GND~I_combout $end
$var wire 1 > clk~input_o $end
$var wire 1 ? clk~inputCLKENA0_outclk $end
$var wire 1 @ inst|lpm_counter_13|LPM_COUNTER_component|auto_generated|counter_comb_bita0~sumout $end
$var wire 1 A reset~input_o $end
$var wire 1 B inst|lpm_counter_13|LPM_COUNTER_component|auto_generated|counter_reg_bit[0]~DUPLICATE_q $end
$var wire 1 C inst|lpm_counter_13|LPM_COUNTER_component|auto_generated|counter_comb_bita0~COUT $end
$var wire 1 D inst|lpm_counter_13|LPM_COUNTER_component|auto_generated|counter_comb_bita1~sumout $end
$var wire 1 E inst|lpm_counter_13|LPM_COUNTER_component|auto_generated|counter_reg_bit[1]~DUPLICATE_q $end
$var wire 1 F inst|lpm_counter_13|LPM_COUNTER_component|auto_generated|counter_comb_bita1~COUT $end
$var wire 1 G inst|lpm_counter_13|LPM_COUNTER_component|auto_generated|counter_comb_bita2~sumout $end
$var wire 1 H inst|lpm_counter_13|LPM_COUNTER_component|auto_generated|counter_comb_bita2~COUT $end
$var wire 1 I inst|lpm_counter_13|LPM_COUNTER_component|auto_generated|counter_comb_bita3~sumout $end
$var wire 1 J inst|lpm_counter_13|LPM_COUNTER_component|auto_generated|counter_comb_bita3~COUT $end
$var wire 1 K inst|lpm_counter_13|LPM_COUNTER_component|auto_generated|counter_comb_bita4~sumout $end
$var wire 1 L inst|lpm_counter_13|LPM_COUNTER_component|auto_generated|counter_comb_bita4~COUT $end
$var wire 1 M inst|lpm_counter_13|LPM_COUNTER_component|auto_generated|counter_comb_bita5~sumout $end
$var wire 1 N inst|lpm_counter_13|LPM_COUNTER_component|auto_generated|counter_comb_bita5~COUT $end
$var wire 1 O inst|lpm_counter_13|LPM_COUNTER_component|auto_generated|counter_comb_bita6~sumout $end
$var wire 1 P inst|lpm_counter_13|LPM_COUNTER_component|auto_generated|counter_comb_bita6~COUT $end
$var wire 1 Q inst|lpm_counter_13|LPM_COUNTER_component|auto_generated|counter_comb_bita7~sumout $end
$var wire 1 R inst|inst5~1_combout $end
$var wire 1 S inst|lpm_counter_13|LPM_COUNTER_component|auto_generated|counter_comb_bita7~COUT $end
$var wire 1 T inst|lpm_counter_13|LPM_COUNTER_component|auto_generated|counter_comb_bita8~sumout $end
$var wire 1 U inst|lpm_counter_13|LPM_COUNTER_component|auto_generated|counter_comb_bita8~COUT $end
$var wire 1 V inst|lpm_counter_13|LPM_COUNTER_component|auto_generated|counter_comb_bita9~sumout $end
$var wire 1 W inst|lpm_counter_13|LPM_COUNTER_component|auto_generated|counter_reg_bit[10]~DUPLICATE_q $end
$var wire 1 X inst|lpm_counter_13|LPM_COUNTER_component|auto_generated|counter_comb_bita9~COUT $end
$var wire 1 Y inst|lpm_counter_13|LPM_COUNTER_component|auto_generated|counter_comb_bita10~sumout $end
$var wire 1 Z inst|lpm_counter_13|LPM_COUNTER_component|auto_generated|counter_comb_bita10~COUT $end
$var wire 1 [ inst|lpm_counter_13|LPM_COUNTER_component|auto_generated|counter_comb_bita11~sumout $end
$var wire 1 \ inst|lpm_counter_13|LPM_COUNTER_component|auto_generated|counter_comb_bita11~COUT $end
$var wire 1 ] inst|lpm_counter_13|LPM_COUNTER_component|auto_generated|counter_comb_bita12~sumout $end
$var wire 1 ^ inst|inst5~0_combout $end
$var wire 1 _ inst|inst5~combout $end
$var wire 1 ` inst|inst8~q $end
$var wire 1 a inst2|inst1|LPM_COUNTER_component|auto_generated|counter_comb_bita0~sumout $end
$var wire 1 b inst2|inst|tx_state_start~0_combout $end
$var wire 1 c inst2|inst1|LPM_COUNTER_component|auto_generated|counter_comb_bita1~COUT $end
$var wire 1 d inst2|inst1|LPM_COUNTER_component|auto_generated|counter_comb_bita2~sumout $end
$var wire 1 e inst2|inst|Selector1~0_combout $end
$var wire 1 f inst2|inst|fstate.DATA~q $end
$var wire 1 g inst2|inst1|LPM_COUNTER_component|auto_generated|_~0_combout $end
$var wire 1 h inst2|inst1|LPM_COUNTER_component|auto_generated|counter_comb_bita0~COUT $end
$var wire 1 i inst2|inst1|LPM_COUNTER_component|auto_generated|counter_comb_bita1~sumout $end
$var wire 1 j inst2|inst|Selector3~0_combout $end
$var wire 1 k inst2|inst|fstate.STOP~q $end
$var wire 1 l data_ready~input_o $end
$var wire 1 m inst2|inst|reg_fstate.IDLE~0_combout $end
$var wire 1 n inst2|inst|fstate.IDLE~q $end
$var wire 1 o inst2|inst|Selector0~0_combout $end
$var wire 1 p inst2|inst|fstate.START~0_combout $end
$var wire 1 q inst2|inst|fstate.START~q $end
$var wire 1 r inst2|inst40~combout $end
$var wire 1 s data_in[5]~input_o $end
$var wire 1 t inst2|inst37~q $end
$var wire 1 u data_in[6]~input_o $end
$var wire 1 v inst2|inst38~q $end
$var wire 1 w data_in[7]~input_o $end
$var wire 1 x inst2|inst39~feeder_combout $end
$var wire 1 y inst2|inst39~q $end
$var wire 1 z data_in[2]~input_o $end
$var wire 1 { inst2|inst20~q $end
$var wire 1 | data_in[1]~input_o $end
$var wire 1 } inst2|inst19~q $end
$var wire 1 ~ data_in[3]~input_o $end
$var wire 1 !! inst2|inst21~feeder_combout $end
$var wire 1 "! inst2|inst21~q $end
$var wire 1 #! data_in[0]~input_o $end
$var wire 1 $! inst2|inst6~q $end
$var wire 1 %! inst2|inst41|LPM_MUX_component|auto_generated|l2_w0_n0_mux_dataout~4_combout $end
$var wire 1 &! data_in[4]~input_o $end
$var wire 1 '! inst2|inst25~q $end
$var wire 1 (! inst2|inst41|LPM_MUX_component|auto_generated|l2_w0_n0_mux_dataout~0_combout $end
$var wire 1 )! inst2|inst43|LPM_MUX_component|auto_generated|l2_w0_n0_mux_dataout~0_combout $end
$var wire 1 *! inst3|inst26|LPM_COUNTER_component|auto_generated|counter_comb_bita0~sumout $end
$var wire 1 +! inst3|inst26|LPM_COUNTER_component|auto_generated|counter_comb_bita1~COUT $end
$var wire 1 ,! inst3|inst26|LPM_COUNTER_component|auto_generated|counter_comb_bita2~sumout $end
$var wire 1 -! inst3|inst|Selector2~0_combout $end
$var wire 1 .! inst3|inst|fstate.DATA~q $end
$var wire 1 /! inst3|inst26|LPM_COUNTER_component|auto_generated|_~0_combout $end
$var wire 1 0! inst3|inst|Selector3~0_combout $end
$var wire 1 1! inst3|inst|fstate.STOP~q $end
$var wire 1 2! inst3|inst|reg_fstate.IDLE~0_combout $end
$var wire 1 3! inst3|inst|fstate.IDLE~0_combout $end
$var wire 1 4! inst3|inst|fstate.IDLE~q $end
$var wire 1 5! inst3|inst|Selector1~1_combout $end
$var wire 1 6! inst3|inst|Selector1~0_combout $end
$var wire 1 7! inst3|inst|fstate.START~q $end
$var wire 1 8! inst3|inst|clear_bit_index~0_combout $end
$var wire 1 9! inst3|inst26|LPM_COUNTER_component|auto_generated|counter_comb_bita0~COUT $end
$var wire 1 :! inst3|inst26|LPM_COUNTER_component|auto_generated|counter_comb_bita1~sumout $end
$var wire 1 ;! inst3|inst10~combout $end
$var wire 1 <! inst3|inst36~q $end
$var wire 1 =! inst3|inst9~combout $end
$var wire 1 >! inst3|inst35~feeder_combout $end
$var wire 1 ?! inst3|inst35~q $end
$var wire 1 @! inst3|inst8~combout $end
$var wire 1 A! inst3|inst34~feeder_combout $end
$var wire 1 B! inst3|inst34~q $end
$var wire 1 C! inst3|inst7~combout $end
$var wire 1 D! inst3|inst33~q $end
$var wire 1 E! inst3|inst6~combout $end
$var wire 1 F! inst3|inst32~q $end
$var wire 1 G! inst3|inst5~combout $end
$var wire 1 H! inst3|inst31~feeder_combout $end
$var wire 1 I! inst3|inst31~q $end
$var wire 1 J! inst3|inst4~combout $end
$var wire 1 K! inst3|inst30~q $end
$var wire 1 L! inst3|inst3~combout $end
$var wire 1 M! inst3|inst29~q $end
$var wire 1 N! inst2|inst|tx_state_data~0_combout $end
$var wire 1 O! inst2|inst1|LPM_COUNTER_component|auto_generated|counter_reg_bit [2] $end
$var wire 1 P! inst2|inst1|LPM_COUNTER_component|auto_generated|counter_reg_bit [1] $end
$var wire 1 Q! inst2|inst1|LPM_COUNTER_component|auto_generated|counter_reg_bit [0] $end
$var wire 1 R! inst3|inst26|LPM_COUNTER_component|auto_generated|counter_reg_bit [2] $end
$var wire 1 S! inst3|inst26|LPM_COUNTER_component|auto_generated|counter_reg_bit [1] $end
$var wire 1 T! inst3|inst26|LPM_COUNTER_component|auto_generated|counter_reg_bit [0] $end
$var wire 1 U! inst|lpm_counter_13|LPM_COUNTER_component|auto_generated|counter_reg_bit [12] $end
$var wire 1 V! inst|lpm_counter_13|LPM_COUNTER_component|auto_generated|counter_reg_bit [11] $end
$var wire 1 W! inst|lpm_counter_13|LPM_COUNTER_component|auto_generated|counter_reg_bit [10] $end
$var wire 1 X! inst|lpm_counter_13|LPM_COUNTER_component|auto_generated|counter_reg_bit [9] $end
$var wire 1 Y! inst|lpm_counter_13|LPM_COUNTER_component|auto_generated|counter_reg_bit [8] $end
$var wire 1 Z! inst|lpm_counter_13|LPM_COUNTER_component|auto_generated|counter_reg_bit [7] $end
$var wire 1 [! inst|lpm_counter_13|LPM_COUNTER_component|auto_generated|counter_reg_bit [6] $end
$var wire 1 \! inst|lpm_counter_13|LPM_COUNTER_component|auto_generated|counter_reg_bit [5] $end
$var wire 1 ]! inst|lpm_counter_13|LPM_COUNTER_component|auto_generated|counter_reg_bit [4] $end
$var wire 1 ^! inst|lpm_counter_13|LPM_COUNTER_component|auto_generated|counter_reg_bit [3] $end
$var wire 1 _! inst|lpm_counter_13|LPM_COUNTER_component|auto_generated|counter_reg_bit [2] $end
$var wire 1 `! inst|lpm_counter_13|LPM_COUNTER_component|auto_generated|counter_reg_bit [1] $end
$var wire 1 a! inst|lpm_counter_13|LPM_COUNTER_component|auto_generated|counter_reg_bit [0] $end
$upscope $end
$upscope $end
$enddefinitions $end
#0
$dumpvars
0!
b10110101 "
0#
1$
0%
0-
0,
0+
0*
0)
0(
0'
0&
00
0/
0.
03
02
01
05
04
16
07
18
x9
1:
1;
1<
0=
0>
0?
1@
1A
0B
0C
0D
0E
0F
0G
0H
0I
0J
0K
0L
0M
0N
0O
0P
0Q
0R
0S
0T
0U
0V
0W
0X
0Y
0Z
0[
0\
0]
1^
0_
0`
1a
0b
0c
0d
0e
0f
0g
0h
0i
0j
0k
0l
0m
0n
0o
1p
0q
0r
1s
0t
0u
0v
1w
1x
0y
1z
0{
0|
0}
0~
0!!
0"!
1#!
0$!
0%!
1&!
0'!
0(!
1)!
1*!
0+!
0,!
0-!
0.!
0/!
00!
01!
12!
03!
04!
05!
06!
07!
08!
09!
0:!
0;!
0<!
0=!
1>!
0?!
0@!
1A!
0B!
0C!
0D!
0E!
0F!
0G!
1H!
0I!
0J!
0K!
0L!
0M!
0N!
0Q!
0P!
0O!
0T!
0S!
0R!
0a!
0`!
0_!
0^!
0]!
0\!
0[!
0Z!
0Y!
0X!
0W!
0V!
0U!
$end
#5000
1!
1>
1?
#10000
0!
0>
0?
#15000
1!
1>
1?
#20000
1#
0$
0!
1l
0A
0>
0?
15!
0p
1o
1r
1'!
1$!
1{
1y
1t
1%!
1(!
#25000
1!
1>
1?
1a!
1B
1C
0@
1D
#30000
0!
0>
0?
#35000
1!
1>
1?
1`!
0a!
1E
0B
0C
1F
1@
0D
0F
1D
1G
0G
#40000
0!
0>
0?
#45000
1!
1>
1?
1a!
1B
1C
0@
1F
0D
1G
#50000
0!
0>
0?
#55000
1!
1>
1?
0`!
0a!
1_!
0E
0B
0C
0F
1H
1@
1D
0G
0H
0D
1G
1I
0I
#60000
0!
0>
0?
#65000
1!
1>
1?
1a!
1B
1C
0@
1D
#70000
0!
0>
0?
#75000
1!
1>
1?
1`!
0a!
1E
0B
0C
1F
1@
0D
0F
1H
1D
0G
0H
1G
1I
0I
#80000
0!
0>
0?
#85000
1!
1>
1?
1a!
1B
1C
0@
1F
0D
1H
0G
1I
#90000
0!
0>
0?
#95000
1!
1>
1?
0`!
0a!
1^!
0_!
0E
0B
0C
0F
1R
0H
1J
1@
1D
1G
0I
0J
0D
0G
1I
1K
0K
#100000
0!
0>
0?
#105000
1!
1>
1?
1a!
1B
1C
1_
0@
1D
#110000
0!
0>
0?
#115000
1!
1>
1?
0a!
0^!
0B
1`
1%
0C
0R
0_
1p
1@
0I
1m
0D
#120000
0!
0>
0?
#125000
1!
1>
1?
1q
1n
1a!
1B
0`
0%
1C
0o
02!
1g
0p
0@
0r
16!
0)!
1b
15
06
1D
13!
0H!
0A!
0>!
#130000
0!
0>
0?
#135000
1!
1>
1?
17!
14!
1`!
0a!
1E
0B
0C
1F
05!
18!
1/!
1@
0D
0F
1D
1G
0G
#140000
0#
0!
0l
0>
0?
#145000
1!
1>
1?
1a!
1B
1C
0@
1F
0D
1G
#150000
0!
0>
0?
#155000
1!
1>
1?
0`!
0a!
1_!
0E
0B
0C
0F
1H
1@
1D
0G
0H
0D
1G
1I
0I
#160000
0!
0>
0?
#165000
1!
1>
1?
1a!
1B
1C
0@
1D
#170000
0!
0>
0?
#175000
1!
1>
1?
1`!
0a!
1E
0B
0C
1F
1@
0D
0F
1H
1D
0G
0H
1G
1I
0I
#180000
0!
0>
0?
#185000
1!
1>
1?
1a!
1B
1C
0@
1F
0D
1H
0G
1I
#190000
0!
0>
0?
#195000
1!
1>
1?
0`!
0a!
1^!
0_!
0E
0B
0C
0F
1R
0H
1J
1@
1D
1G
0I
0J
0D
0G
1I
1K
0K
#200000
0!
0>
0?
#205000
1!
1>
1?
1a!
1B
1C
1_
0@
1D
#210000
0!
0>
0?
#215000
1!
1>
1?
0a!
0^!
0B
1`
1%
0C
0R
0_
1p
1@
0I
06!
1-!
1e
0D
#220000
0!
0>
0?
#225000
1!
1>
1?
07!
1.!
0q
1f
1a!
1B
0`
0%
1C
0g
0/!
08!
0p
0@
1N!
1)!
0b
05
16
14
1D
1H!
1A!
1>!
#230000
0!
0>
0?
#235000
1!
1>
1?
1`!
0a!
1E
0B
0C
1F
1@
0D
0F
1D
1G
0G
#240000
0!
0>
0?
#245000
1!
1>
1?
1a!
1B
1C
0@
1F
0D
1G
#250000
0!
0>
0?
#255000
1!
1>
1?
0`!
0a!
1_!
0E
0B
0C
0F
1H
1@
1D
0G
0H
0D
1G
1I
0I
#260000
0!
0>
0?
#265000
1!
1>
1?
1a!
1B
1C
0@
1D
#270000
0!
0>
0?
#275000
1!
1>
1?
1`!
0a!
1E
0B
0C
1F
1@
0D
0F
1H
1D
0G
0H
1G
1I
0I
#280000
0!
0>
0?
#285000
1!
1>
1?
1a!
1B
1C
0@
1F
0D
1H
0G
1I
#290000
0!
0>
0?
#295000
1!
1>
1?
0`!
0a!
1^!
0_!
0E
0B
0C
0F
1R
0H
1J
1@
1D
1G
0I
0J
0D
0G
1I
1K
0K
#300000
0!
0>
0?
#305000
1!
1>
1?
1a!
1B
1C
1_
0@
1D
#310000
0!
0>
0?
#315000
1!
1>
1?
0a!
0^!
0B
1`
1%
0C
0R
0_
1/!
1p
1g
1@
0I
1L!
0D
1M!
1-
#320000
0!
0>
0?
#325000
1!
1>
1?
1a!
1B
1T!
1Q!
0`
0%
13
10
1C
0/!
0p
0g
0%!
1h
19!
0@
0L!
0a
0*!
0(!
1D
1i
1:!
0)!
06
0H!
0A!
0>!
#330000
0!
0>
0?
#335000
1!
1>
1?
1`!
0a!
1E
0B
0C
1F
1@
0D
0F
1D
1G
0G
#340000
0!
0>
0?
#345000
1!
1>
1?
1a!
1B
1C
0@
1F
0D
1G
#350000
0!
0>
0?
#355000
1!
1>
1?
0`!
0a!
1_!
0E
0B
0C
0F
1H
1@
1D
0G
0H
0D
1G
1I
0I
#360000
0!
0>
0?
#365000
1!
1>
1?
1a!
1B
1C
0@
1D
#370000
0!
0>
0?
#375000
1!
1>
1?
1`!
0a!
1E
0B
0C
1F
1@
0D
0F
1H
1D
0G
0H
1G
1I
0I
#380000
0!
0>
0?
#385000
1!
1>
1?
1a!
1B
1C
0@
1F
0D
1H
0G
1I
#390000
0!
0>
0?
#395000
1!
1>
1?
0`!
0a!
1^!
0_!
0E
0B
0C
0F
1R
0H
1J
1@
1D
1G
0I
0J
0D
0G
1I
1K
0K
#400000
0!
0>
0?
#405000
1!
1>
1?
1a!
1B
1C
1_
0@
1D
#410000
0!
0>
0?
#415000
1!
1>
1?
0a!
0^!
0B
1`
1%
0C
0R
0_
1/!
1p
1g
1@
0I
1J!
0D
#420000
0!
0>
0?
#425000
1!
1>
1?
1a!
1B
1S!
0T!
1P!
0Q!
0`
0%
03
12
00
1/
1C
0/!
0p
0g
1%!
0h
1c
09!
1+!
0@
0J!
1a
0i
1*!
0:!
0c
0+!
1(!
1D
1i
1d
1:!
1,!
0d
0,!
1)!
16
1H!
1A!
1>!
#430000
0!
0>
0?
#435000
1!
1>
1?
1`!
0a!
1E
0B
0C
1F
1@
0D
0F
1D
1G
0G
#440000
0!
0>
0?
#445000
1!
1>
1?
1a!
1B
1C
0@
1F
0D
1G
#450000
0!
0>
0?
#455000
1!
1>
1?
0`!
0a!
1_!
0E
0B
0C
0F
1H
1@
1D
0G
0H
0D
1G
1I
0I
#460000
0!
0>
0?
#465000
1!
1>
1?
1a!
1B
1C
0@
1D
#470000
0!
0>
0?
#475000
1!
1>
1?
1`!
0a!
1E
0B
0C
1F
1@
0D
0F
1H
1D
0G
0H
1G
1I
0I
#480000
0!
0>
0?
#485000
1!
1>
1?
1a!
1B
1C
0@
1F
0D
1H
0G
1I
#490000
0!
0>
0?
#495000
1!
1>
1?
0`!
0a!
1^!
0_!
0E
0B
0C
0F
1R
0H
1J
1@
1D
1G
0I
0J
0D
0G
1I
1K
0K
#500000
0!
0>
0?
#505000
1!
1>
1?
1a!
1B
1C
1_
0@
1D
#510000
0!
0>
0?
#515000
1!
1>
1?
0a!
0^!
0B
1`
1%
0C
0R
0_
1/!
1p
1g
1@
0I
1G!
0D
1I!
1+
#520000
0!
0>
0?
#525000
1!
1>
1?
1a!
1B
1T!
1Q!
0`
0%
13
10
1C
0/!
0p
0g
0%!
1h
19!
0@
0G!
0a
0*!
1c
1+!
0(!
1D
0i
0:!
1d
1,!
0)!
06
0H!
0A!
0>!
#530000
0!
0>
0?
#535000
1!
1>
1?
1`!
0a!
1E
0B
0C
1F
1@
0D
0F
1D
1G
0G
#540000
0!
0>
0?
#545000
1!
1>
1?
1a!
1B
1C
0@
1F
0D
1G
#550000
0!
0>
0?
#555000
1!
1>
1?
0`!
0a!
1_!
0E
0B
0C
0F
1H
1@
1D
0G
0H
0D
1G
1I
0I
#560000
0!
0>
0?
#565000
1!
1>
1?
1a!
1B
1C
0@
1D
#570000
0!
0>
0?
#575000
1!
1>
1?
1`!
0a!
1E
0B
0C
1F
1@
0D
0F
1H
1D
0G
0H
1G
1I
0I
#580000
0!
0>
0?
#585000
1!
1>
1?
1a!
1B
1C
0@
1F
0D
1H
0G
1I
#590000
0!
0>
0?
#595000
1!
1>
1?
0`!
0a!
1^!
0_!
0E
0B
0C
0F
1R
0H
1J
1@
1D
1G
0I
0J
0D
0G
1I
1K
0K
#600000
0!
0>
0?
#605000
1!
1>
1?
1a!
1B
1C
1_
0@
1D
#610000
0!
0>
0?
#615000
1!
1>
1?
0a!
0^!
0B
1`
1%
0C
0R
0_
1/!
1p
1g
1@
0I
1E!
0D
#620000
0!
0>
0?
#625000
1!
1>
1?
1a!
1B
0S!
0T!
1R!
0P!
0Q!
1O!
0`
0%
11
03
02
1.
00
0/
1C
0/!
0p
0g
1(!
0h
0c
09!
0+!
0@
0E!
0d
1a
1i
0,!
1*!
1:!
1D
0i
1d
0:!
1,!
1)!
16
1H!
1A!
1>!
#630000
0!
0>
0?
#635000
1!
1>
1?
1`!
0a!
1E
0B
0C
1F
1@
0D
0F
1D
1G
0G
#640000
0!
0>
0?
#645000
1!
1>
1?
1a!
1B
1C
0@
1F
0D
1G
#650000
0!
0>
0?
#655000
1!
1>
1?
0`!
0a!
1_!
0E
0B
0C
0F
1H
1@
1D
0G
0H
0D
1G
1I
0I
#660000
0!
0>
0?
#665000
1!
1>
1?
1a!
1B
1C
0@
1D
#670000
0!
0>
0?
#675000
1!
1>
1?
1`!
0a!
1E
0B
0C
1F
1@
0D
0F
1H
1D
0G
0H
1G
1I
0I
#680000
0!
0>
0?
#685000
1!
1>
1?
1a!
1B
1C
0@
1F
0D
1H
0G
1I
#690000
0!
0>
0?
#695000
1!
1>
1?
0`!
0a!
1^!
0_!
0E
0B
0C
0F
1R
0H
1J
1@
1D
1G
0I
0J
0D
0G
1I
1K
0K
#700000
0!
0>
0?
#705000
1!
1>
1?
1a!
1B
1C
1_
0@
1D
#710000
0!
0>
0?
#715000
1!
1>
1?
0a!
0^!
0B
1`
1%
0C
0R
0_
1/!
1p
1g
1@
0I
1C!
0D
1D!
1)
#720000
0!
0>
0?
#725000
1!
1>
1?
1a!
1B
1T!
1Q!
0`
0%
13
10
1C
0/!
0p
0g
1%!
1h
19!
0@
0C!
0a
0*!
1D
1i
1:!
#730000
0!
0>
0?
#735000
1!
1>
1?
1`!
0a!
1E
0B
0C
1F
1@
0D
0F
1D
1G
0G
#740000
0!
0>
0?
#745000
1!
1>
1?
1a!
1B
1C
0@
1F
0D
1G
#750000
0!
0>
0?
#755000
1!
1>
1?
0`!
0a!
1_!
0E
0B
0C
0F
1H
1@
1D
0G
0H
0D
1G
1I
0I
#760000
0!
0>
0?
#765000
1!
1>
1?
1a!
1B
1C
0@
1D
#770000
0!
0>
0?
#775000
1!
1>
1?
1`!
0a!
1E
0B
0C
1F
1@
0D
0F
1H
1D
0G
0H
1G
1I
0I
#780000
0!
0>
0?
#785000
1!
1>
1?
1a!
1B
1C
0@
1F
0D
1H
0G
1I
#790000
0!
0>
0?
#795000
1!
1>
1?
0`!
0a!
1^!
0_!
0E
0B
0C
0F
1R
0H
1J
1@
1D
1G
0I
0J
0D
0G
1I
1K
0K
#800000
0!
0>
0?
#805000
1!
1>
1?
1a!
1B
1C
1_
0@
1D
#810000
0!
0>
0?
#815000
1!
1>
1?
0a!
0^!
0B
1`
1%
0C
0R
0_
1/!
1p
1g
1@
0I
1@!
0D
1B!
1(
#820000
0!
0>
0?
#825000
1!
1>
1?
1a!
1B
1S!
0T!
1P!
0Q!
0`
0%
03
12
00
1/
1C
0/!
0p
0g
0%!
0h
1c
09!
1+!
0@
0@!
1a
0i
1*!
0:!
0c
0+!
0(!
1D
1i
0d
1:!
0,!
1d
1,!
0)!
06
0H!
0A!
0>!
#830000
0!
0>
0?
#835000
1!
1>
1?
1`!
0a!
1E
0B
0C
1F
1@
0D
0F
1D
1G
0G
#840000
0!
0>
0?
#845000
1!
1>
1?
1a!
1B
1C
0@
1F
0D
1G
#850000
0!
0>
0?
#855000
1!
1>
1?
0`!
0a!
1_!
0E
0B
0C
0F
1H
1@
1D
0G
0H
0D
1G
1I
0I
#860000
0!
0>
0?
#865000
1!
1>
1?
1a!
1B
1C
0@
1D
#870000
0!
0>
0?
#875000
1!
1>
1?
1`!
0a!
1E
0B
0C
1F
1@
0D
0F
1H
1D
0G
0H
1G
1I
0I
#880000
0!
0>
0?
#885000
1!
1>
1?
1a!
1B
1C
0@
1F
0D
1H
0G
1I
#890000
0!
0>
0?
#895000
1!
1>
1?
0`!
0a!
1^!
0_!
0E
0B
0C
0F
1R
0H
1J
1@
1D
1G
0I
0J
0D
0G
1I
1K
0K
#900000
0!
0>
0?
#905000
1!
1>
1?
1a!
1B
1C
1_
0@
1D
#910000
0!
0>
0?
#915000
1!
1>
1?
0a!
0^!
0B
1`
1%
0C
0R
0_
1/!
1p
1g
1@
0I
1=!
0D
#920000
0!
0>
0?
#925000
1!
1>
1?
1a!
1B
1T!
1Q!
0`
0%
13
10
1C
0/!
0p
0g
1%!
1h
19!
0@
0=!
0a
0*!
1c
1+!
1(!
1D
0i
0:!
0d
0,!
1)!
16
1H!
1A!
1>!
#930000
0!
0>
0?
#935000
1!
1>
1?
1`!
0a!
1E
0B
0C
1F
1@
0D
0F
1D
1G
0G
#940000
0!
0>
0?
#945000
1!
1>
1?
1a!
1B
1C
0@
1F
0D
1G
#950000
0!
0>
0?
#955000
1!
1>
1?
0`!
0a!
1_!
0E
0B
0C
0F
1H
1@
1D
0G
0H
0D
1G
1I
0I
#960000
0!
0>
0?
#965000
1!
1>
1?
1a!
1B
1C
0@
1D
#970000
0!
0>
0?
#975000
1!
1>
1?
1`!
0a!
1E
0B
0C
1F
1@
0D
0F
1H
1D
0G
0H
1G
1I
0I
#980000
0!
0>
0?
#985000
1!
1>
1?
1a!
1B
1C
0@
1F
0D
1H
0G
1I
#990000
0!
0>
0?
#995000
1!
1>
1?
0`!
0a!
1^!
0_!
0E
0B
0C
0F
1R
0H
1J
1@
1D
1G
0I
0J
0D
0G
1I
1K
0K
#1000000
0!
0>
0?
#1005000
1!
1>
1?
1a!
1B
1C
1_
0@
1D
#1010000
0!
0>
0?
#1015000
1!
1>
1?
0a!
0^!
0B
1`
1%
0C
0R
0_
1/!
1p
1g
1@
0I
1;!
10!
0-!
1j
0e
0D
1<!
1&
#1020000
0!
0>
0?
#1025000
1!
1>
1?
11!
0.!
1k
0f
1a!
1B
0S!
0T!
0R!
0P!
0Q!
0O!
0`
0%
01
03
02
0.
00
0/
1C
0g
0/!
0p
0h
0c
09!
0+!
0@
0N!
0;!
1d
1a
1i
1,!
1*!
1:!
04
1D
0i
0d
0:!
0,!
#1030000
0!
0>
0?
#1035000
1!
1>
1?
1`!
0a!
1E
0B
0C
1F
1@
0D
0F
1D
1G
0G
#1040000
0!
0>
0?
#1045000
1!
1>
1?
1a!
1B
1C
0@
1F
0D
1G
#1050000
0!
0>
0?
#1055000
1!
1>
1?
0`!
0a!
1_!
0E
0B
0C
0F
1H
1@
1D
0G
0H
0D
1G
1I
0I
#1060000
0!
0>
0?
#1065000
1!
1>
1?
1a!
1B
1C
0@
1D
#1070000
0!
0>
0?
#1075000
1!
1>
1?
1`!
0a!
1E
0B
0C
1F
1@
0D
0F
1H
1D
0G
0H
1G
1I
0I
#1080000
0!
0>
0?
#1085000
1!
1>
1?
1a!
1B
1C
0@
1F
0D
1H
0G
1I
#1090000
0!
0>
0?
#1095000
1!
1>
1?
0`!
0a!
1^!
0_!
0E
0B
0C
0F
1R
0H
1J
1@
1D
1G
0I
0J
0D
0G
1I
1K
0K
#1100000
0!
0>
0?
#1105000
1!
1>
1?
1a!
1B
1C
1_
0@
1D
#1110000
0!
0>
0?
#1115000
1!
1>
1?
0a!
0^!
0B
1`
1%
0C
0R
0_
12!
1p
1@
0I
00!
0m
0j
0D
03!
#1120000
0!
0>
0?
#1125000
1!
1>
1?
04!
01!
0n
0k
1a!
1B
0`
0%
1C
15!
0p
0@
1D
#1130000
0!
0>
0?
#1135000
1!
1>
1?
1`!
0a!
1E
0B
0C
1F
1@
0D
0F
1D
1G
0G
#1140000
0!
0>
0?
#1145000
1!
1>
1?
1a!
1B
1C
0@
1F
0D
1G
#1150000
0!
0>
0?
#1155000
1!
1>
1?
0`!
0a!
1_!
0E
0B
0C
0F
1H
1@
1D
0G
0H
0D
1G
1I
0I
#1160000
0!
0>
0?
#1165000
1!
1>
1?
1a!
1B
1C
0@
1D
#1170000
0!
0>
0?
#1175000
1!
1>
1?
1`!
0a!
1E
0B
0C
1F
1@
0D
0F
1H
1D
0G
0H
1G
1I
0I
#1180000
0!
0>
0?
#1185000
1!
1>
1?
1a!
1B
1C
0@
1F
0D
1H
0G
1I
#1190000
0!
0>
0?
#1195000
1!
1>
1?
0`!
0a!
1^!
0_!
0E
0B
0C
0F
1R
0H
1J
1@
1D
1G
0I
0J
0D
0G
1I
1K
0K
#1200000
0!
0>
0?
#1205000
1!
1>
1?
1a!
1B
1C
1_
0@
1D
#1210000
0!
0>
0?
#1215000
1!
1>
1?
0a!
0^!
0B
1`
1%
0C
0R
0_
1p
1@
0I
0D
#1220000
0!
0>
0?
#1225000
1!
1>
1?
1a!
1B
0`
0%
1C
0p
0@
1D
#1230000
0!
0>
0?
#1235000
1!
1>
1?
1`!
0a!
1E
0B
0C
1F
1@
0D
0F
1D
1G
0G
#1240000
0!
0>
0?
#1245000
1!
1>
1?
1a!
1B
1C
0@
1F
0D
1G
#1250000
0!
0>
0?
#1255000
1!
1>
1?
0`!
0a!
1_!
0E
0B
0C
0F
1H
1@
1D
0G
0H
0D
1G
1I
0I
#1260000
0!
0>
0?
#1265000
1!
1>
1?
1a!
1B
1C
0@
1D
