simulation/qsim/uart.msim.vcd
$comment
	File created using the following command:
		vcd file uart.msim.vcd -direction
$end
$date
	Thu Jun 11 02:31:46 2026
$end
$version
	ModelSim Version 10.5b
$end
$timescale
	1ps
$end

$scope module top_vlg_vec_tst $end
$var reg 1 ! clk $end
$var reg 4 " data_in [3:0] $end
$var reg 1 # data_ready $end
$var reg 1 $ noise $end
$var reg 1 % reset $end
$var reg 1 & zero $end
$var wire 1 ' baud_tick $end
$var wire 1 ( data_out [3] $end
$var wire 1 ) data_out [2] $end
$var wire 1 * data_out [1] $end
$var wire 1 + data_out [0] $end
$var wire 1 , rx_cnt [2] $end
$var wire 1 - rx_cnt [1] $end
$var wire 1 . rx_cnt [0] $end
$var wire 1 / rx_noisedata $end
$var wire 1 0 tx_cnt [2] $end
$var wire 1 1 tx_cnt [1] $end
$var wire 1 2 tx_cnt [0] $end
$var wire 1 3 tx_sel [1] $end
$var wire 1 4 tx_sel [0] $end
$var wire 1 5 tx_serial $end

$scope module i1 $end
$var wire 1 6 gnd $end
$var wire 1 7 vcc $end
$var wire 1 8 unknown $end
$var tri1 1 9 devclrn $end
$var tri1 1 : devpor $end
$var tri1 1 ; devoe $end
$var wire 1 < clk~input_o $end
$var wire 1 = clk~inputCLKENA0_outclk $end
$var wire 1 > inst5|inst1|LPM_COUNTER_component|auto_generated|counter_comb_bita0~sumout $end
$var wire 1 ? ~GND~combout $end
$var wire 1 @ reset~input_o $end
$var wire 1 A inst|lpm_counter_13|LPM_COUNTER_component|auto_generated|counter_comb_bita0~sumout $end
$var wire 1 B inst|lpm_counter_13|LPM_COUNTER_component|auto_generated|counter_comb_bita0~COUT $end
$var wire 1 C inst|lpm_counter_13|LPM_COUNTER_component|auto_generated|counter_comb_bita1~sumout $end
$var wire 1 D inst|lpm_counter_13|LPM_COUNTER_component|auto_generated|counter_comb_bita1~COUT $end
$var wire 1 E inst|lpm_counter_13|LPM_COUNTER_component|auto_generated|counter_comb_bita2~sumout $end
$var wire 1 F inst|lpm_counter_13|LPM_COUNTER_component|auto_generated|counter_reg_bit[2]~DUPLICATE_q $end
$var wire 1 G inst|lpm_counter_13|LPM_COUNTER_component|auto_generated|counter_comb_bita2~COUT $end
$var wire 1 H inst|lpm_counter_13|LPM_COUNTER_component|auto_generated|counter_comb_bita3~sumout $end
$var wire 1 I inst|lpm_counter_13|LPM_COUNTER_component|auto_generated|counter_comb_bita3~COUT $end
$var wire 1 J inst|lpm_counter_13|LPM_COUNTER_component|auto_generated|counter_comb_bita4~sumout $end
$var wire 1 K inst|lpm_counter_13|LPM_COUNTER_component|auto_generated|counter_comb_bita4~COUT $end
$var wire 1 L inst|lpm_counter_13|LPM_COUNTER_component|auto_generated|counter_comb_bita5~sumout $end
$var wire 1 M inst|lpm_counter_13|LPM_COUNTER_component|auto_generated|counter_comb_bita5~COUT $end
$var wire 1 N inst|lpm_counter_13|LPM_COUNTER_component|auto_generated|counter_comb_bita6~sumout $end
$var wire 1 O inst|lpm_counter_13|LPM_COUNTER_component|auto_generated|counter_comb_bita6~COUT $end
$var wire 1 P inst|lpm_counter_13|LPM_COUNTER_component|auto_generated|counter_comb_bita7~sumout $end
$var wire 1 Q inst|lpm_counter_13|LPM_COUNTER_component|auto_generated|counter_comb_bita7~COUT $end
$var wire 1 R inst|lpm_counter_13|LPM_COUNTER_component|auto_generated|counter_comb_bita8~sumout $end
$var wire 1 S inst|lpm_counter_13|LPM_COUNTER_component|auto_generated|counter_comb_bita8~COUT $end
$var wire 1 T inst|lpm_counter_13|LPM_COUNTER_component|auto_generated|counter_comb_bita9~sumout $end
$var wire 1 U inst|lpm_counter_13|LPM_COUNTER_component|auto_generated|counter_comb_bita9~COUT $end
$var wire 1 V inst|lpm_counter_13|LPM_COUNTER_component|auto_generated|counter_comb_bita10~sumout $end
$var wire 1 W inst|lpm_counter_13|LPM_COUNTER_component|auto_generated|counter_comb_bita10~COUT $end
$var wire 1 X inst|lpm_counter_13|LPM_COUNTER_component|auto_generated|counter_comb_bita11~sumout $end
$var wire 1 Y inst|lpm_counter_13|LPM_COUNTER_component|auto_generated|counter_comb_bita11~COUT $end
$var wire 1 Z inst|lpm_counter_13|LPM_COUNTER_component|auto_generated|counter_comb_bita12~sumout $end
$var wire 1 [ inst|inst5~0_combout $end
$var wire 1 \ inst|inst5~1_combout $end
$var wire 1 ] inst|inst5~combout $end
$var wire 1 ^ inst|inst8~q $end
$var wire 1 _ inst5|inst1|LPM_COUNTER_component|auto_generated|counter_comb_bita1~COUT $end
$var wire 1 ` inst5|inst1|LPM_COUNTER_component|auto_generated|counter_comb_bita2~sumout $end
$var wire 1 a inst5|inst1|LPM_COUNTER_component|auto_generated|counter_comb_bita2~COUT $end
$var wire 1 b inst5|inst1|LPM_COUNTER_component|auto_generated|counter_comb_bita2~1_sumout $end
$var wire 1 c inst5|inst1|LPM_COUNTER_component|auto_generated|cout_actual~combout $end
$var wire 1 d inst5|inst1|LPM_COUNTER_component|auto_generated|_~0_combout $end
$var wire 1 e inst5|inst|Selector1~0_combout $end
$var wire 1 f inst5|inst|fstate.DATA~q $end
$var wire 1 g inst5|inst|Selector3~0_combout $end
$var wire 1 h inst5|inst|fstate.STOP~q $end
$var wire 1 i data_ready~input_o $end
$var wire 1 j inst5|inst|reg_fstate.IDLE~0_combout $end
$var wire 1 k inst5|inst|fstate.IDLE~q $end
$var wire 1 l inst5|inst|Selector0~0_combout $end
$var wire 1 m inst5|inst|fstate.START~0_combout $end
$var wire 1 n inst5|inst|fstate.START~q $end
$var wire 1 o inst5|inst|tx_state_start~0_combout $end
$var wire 1 p inst5|inst1|LPM_COUNTER_component|auto_generated|counter_comb_bita0~COUT $end
$var wire 1 q inst5|inst1|LPM_COUNTER_component|auto_generated|counter_comb_bita1~sumout $end
$var wire 1 r inst5|inst40~combout $end
$var wire 1 s data_in[2]~input_o $end
$var wire 1 t inst5|inst20~q $end
$var wire 1 u inst5|inst13|LPM_MUX_component|auto_generated|l2_w0_n0_mux_dataout~1_combout $end
$var wire 1 v data_in[1]~input_o $end
$var wire 1 w inst5|inst19~q $end
$var wire 1 x data_in[3]~input_o $end
$var wire 1 y inst5|inst21~q $end
$var wire 1 z data_in[0]~input_o $end
$var wire 1 { inst5|inst6~q $end
$var wire 1 | inst5|inst22|LPM_MUX_component|auto_generated|l2_w0_n0_mux_dataout~0_combout $end
$var wire 1 } inst5|inst13|LPM_MUX_component|auto_generated|l2_w0_n0_mux_dataout~0_combout $end
$var wire 1 ~ inst5|inst13|LPM_MUX_component|auto_generated|l2_w0_n0_mux_dataout~2_combout $end
$var wire 1 !! noise~input_o $end
$var wire 1 "! inst5|inst13|LPM_MUX_component|auto_generated|l2_w0_n0_mux_dataout~3_combout $end
$var wire 1 #! inst1~combout $end
$var wire 1 $! inst3|inst26|LPM_COUNTER_component|auto_generated|counter_comb_bita0~sumout $end
$var wire 1 %! inst3|inst26|LPM_COUNTER_component|auto_generated|counter_comb_bita0~COUT $end
$var wire 1 &! inst3|inst26|LPM_COUNTER_component|auto_generated|counter_comb_bita1~sumout $end
$var wire 1 '! inst3|inst26|LPM_COUNTER_component|auto_generated|counter_comb_bita2~COUT $end
$var wire 1 (! inst3|inst26|LPM_COUNTER_component|auto_generated|counter_comb_bita2~1_sumout $end
$var wire 1 )! inst3|inst26|LPM_COUNTER_component|auto_generated|cout_actual~combout $end
$var wire 1 *! inst3|inst26|LPM_COUNTER_component|auto_generated|_~0_combout $end
$var wire 1 +! inst3|inst26|LPM_COUNTER_component|auto_generated|counter_comb_bita1~COUT $end
$var wire 1 ,! inst3|inst26|LPM_COUNTER_component|auto_generated|counter_comb_bita2~sumout $end
$var wire 1 -! inst3|inst|Selector2~0_combout $end
$var wire 1 .! inst3|inst|fstate.DATA~q $end
$var wire 1 /! inst3|inst|Selector3~0_combout $end
$var wire 1 0! inst3|inst|fstate.STOP~q $end
$var wire 1 1! inst3|inst|reg_fstate.IDLE~0_combout $end
$var wire 1 2! inst3|inst|fstate.IDLE~q $end
$var wire 1 3! inst3|inst|Selector1~0_combout $end
$var wire 1 4! inst3|inst|fstate.START~q $end
$var wire 1 5! inst3|inst|clear_bit_index~0_combout $end
$var wire 1 6! inst3|AND5~combout $end
$var wire 1 7! inst3|inst31~feeder_combout $end
$var wire 1 8! inst3|inst31~q $end
$var wire 1 9! inst3|AND2~combout $end
$var wire 1 :! inst3|inst35~feeder_combout $end
$var wire 1 ;! inst3|inst35~q $end
$var wire 1 <! inst3|AND4~combout $end
$var wire 1 =! inst3|inst30~feeder_combout $end
$var wire 1 >! inst3|inst30~q $end
$var wire 1 ?! inst3|AND1~combout $end
$var wire 1 @! inst3|inst34~feeder_combout $end
$var wire 1 A! inst3|inst34~q $end
$var wire 1 B! inst3|inst39~combout $end
$var wire 1 C! inst3|AND~combout $end
$var wire 1 D! inst3|inst33~feeder_combout $end
$var wire 1 E! inst3|inst33~q $end
$var wire 1 F! inst3|inst40~0_combout $end
$var wire 1 G! inst3|AND6~combout $end
$var wire 1 H! inst3|inst32~feeder_combout $end
$var wire 1 I! inst3|inst32~q $end
$var wire 1 J! inst3|AND3~combout $end
$var wire 1 K! inst3|inst29~feeder_combout $end
$var wire 1 L! inst3|inst29~q $end
$var wire 1 M! inst3|inst38~combout $end
$var wire 1 N! zero~input_o $end
$var wire 1 O! inst3|inst7~combout $end
$var wire 1 P! inst3|inst10~combout $end
$var wire 1 Q! inst3|inst9~combout $end
$var wire 1 R! inst3|inst8~combout $end
$var wire 1 S! inst5|inst|tx_state_data~0_combout $end
$var wire 1 T! inst5|inst1|LPM_COUNTER_component|auto_generated|counter_reg_bit [2] $end
$var wire 1 U! inst5|inst1|LPM_COUNTER_component|auto_generated|counter_reg_bit [1] $end
$var wire 1 V! inst5|inst1|LPM_COUNTER_component|auto_generated|counter_reg_bit [0] $end
$var wire 1 W! inst|lpm_counter_13|LPM_COUNTER_component|auto_generated|counter_reg_bit [12] $end
$var wire 1 X! inst|lpm_counter_13|LPM_COUNTER_component|auto_generated|counter_reg_bit [11] $end
$var wire 1 Y! inst|lpm_counter_13|LPM_COUNTER_component|auto_generated|counter_reg_bit [10] $end
$var wire 1 Z! inst|lpm_counter_13|LPM_COUNTER_component|auto_generated|counter_reg_bit [9] $end
$var wire 1 [! inst|lpm_counter_13|LPM_COUNTER_component|auto_generated|counter_reg_bit [8] $end
$var wire 1 \! inst|lpm_counter_13|LPM_COUNTER_component|auto_generated|counter_reg_bit [7] $end
$var wire 1 ]! inst|lpm_counter_13|LPM_COUNTER_component|auto_generated|counter_reg_bit [6] $end
$var wire 1 ^! inst|lpm_counter_13|LPM_COUNTER_component|auto_generated|counter_reg_bit [5] $end
$var wire 1 _! inst|lpm_counter_13|LPM_COUNTER_component|auto_generated|counter_reg_bit [4] $end
$var wire 1 `! inst|lpm_counter_13|LPM_COUNTER_component|auto_generated|counter_reg_bit [3] $end
$var wire 1 a! inst|lpm_counter_13|LPM_COUNTER_component|auto_generated|counter_reg_bit [2] $end
$var wire 1 b! inst|lpm_counter_13|LPM_COUNTER_component|auto_generated|counter_reg_bit [1] $end
$var wire 1 c! inst|lpm_counter_13|LPM_COUNTER_component|auto_generated|counter_reg_bit [0] $end
$var wire 1 d! inst3|inst26|LPM_COUNTER_component|auto_generated|counter_reg_bit [2] $end
$var wire 1 e! inst3|inst26|LPM_COUNTER_component|auto_generated|counter_reg_bit [1] $end
$var wire 1 f! inst3|inst26|LPM_COUNTER_component|auto_generated|counter_reg_bit [0] $end
$upscope $end
$upscope $end
$enddefinitions $end
#0
$dumpvars
0!
b1001 "
0#
0$
0%
0&
0'
0+
0*
0)
0(
0.
0-
0,
1/
02
01
00
04
03
15
06
17
x8
19
1:
1;
0<
0=
1>
0?
0@
1A
0B
0C
0D
0E
0F
0G
0H
0I
0J
0K
0L
0M
0N
0O
0P
0Q
0R
0S
0T
0U
0V
0W
0X
0Y
0Z
1[
0\
0]
0^
0_
0`
0a
0b
0c
0d
0e
0f
0g
0h
0i
0j
0k
0l
0m
0n
0o
0p
0q
0r
0s
0t
0u
0v
0w
1x
0y
1z
0{
0|
0}
1~
0!!
1"!
1#!
1$!
0%!
0&!
0'!
0(!
0)!
0*!
0+!
0,!
0-!
0.!
0/!
00!
01!
02!
03!
04!
05!
06!
17!
08!
09!
1:!
0;!
0<!
1=!
0>!
0?!
1@!
0A!
0B!
0C!
1D!
0E!
0F!
0G!
1H!
0I!
0J!
1K!
0L!
0M!
0N!
0O!
0P!
0Q!
0R!
0S!
0V!
0U!
0T!
0c!
0b!
0a!
0`!
0_!
0^!
0]!
0\!
0[!
0Z!
0Y!
0X!
0W!
0f!
0e!
0d!
$end
#2000
1!
1<
1=
1c!
1B
0A
1C
#4000
0!
0<
0=
#6000
1!
1<
1=
1b!
0c!
0B
1D
1A
0C
0D
1C
1E
0E
#8000
0!
0<
0=
#10000
1!
1<
1=
1c!
1B
0A
1D
0C
1E
#12000
0!
0<
0=
#14000
1!
1<
1=
1a!
1F
0b!
0c!
0B
0D
1G
1A
1C
0E
0G
0C
1E
1H
0H
#16000
0!
0<
0=
#18000
1!
1<
1=
1c!
1B
0A
1C
#20000
0!
0<
0=
#22000
1!
1<
1=
1b!
0c!
0B
1D
1A
0C
0D
1G
1C
0E
0G
1E
1H
0H
#24000
0!
0<
0=
#26000
1!
1<
1=
1c!
1B
0A
1D
0C
1G
0E
1H
#28000
0!
0<
0=
#30000
1#
1!
1i
1<
1=
1l
1r
1{
1y
0a!
1`!
0F
0b!
0c!
0B
0D
0G
1\
1I
1A
1C
1E
0H
0I
0C
0E
1H
1J
0J
#32000
0!
0<
0=
#34000
1!
1<
1=
1c!
1]
1B
0A
1C
#36000
0!
0<
0=
#38000
1!
1<
1=
0`!
0c!
1^
1'
0]
0B
0\
1m
1A
0H
1j
0C
#40000
0!
0<
0=
#42000
1!
1<
1=
1n
1k
1c!
0^
0'
1B
0l
0"!
1d
0m
0A
0r
0~
1o
14
05
1C
13!
11!
0#!
0/
0K!
0H!
0D!
0@!
0=!
0:!
07!
#44000
0!
0<
0=
#46000
1!
1<
1=
14!
12!
1b!
0c!
0B
1D
15!
1*!
1A
0C
0D
1C
1E
0E
#48000
0!
0<
0=
#50000
0#
1!
0i
1<
1=
1c!
1B
0A
1D
0C
1E
#52000
0!
0<
0=
#54000
1!
1<
1=
1a!
1F
0b!
0c!
0B
0D
1G
1A
1C
0E
0G
0C
1E
1H
0H
#56000
0!
0<
0=
#58000
1!
1<
1=
1c!
1B
0A
1C
#60000
0!
0<
0=
#62000
1!
1<
1=
1b!
0c!
0B
1D
1A
0C
0D
1G
1C
0E
0G
1E
1H
0H
#64000
0!
0<
0=
#66000
1!
1<
1=
1c!
1B
0A
1D
0C
1G
0E
1H
#68000
0!
0<
0=
#70000
1!
1<
1=
0a!
1`!
0F
0b!
0c!
0B
0D
0G
1\
1I
1A
1C
1E
0H
0I
0C
0E
1H
1J
0J
#72000
0!
0<
0=
#74000
1!
1<
1=
1c!
1]
1B
0A
1C
#76000
0!
0<
0=
#78000
1!
1<
1=
0`!
0c!
1^
1'
0]
0B
0\
1m
1A
0H
03!
1-!
1e
0C
#80000
0!
0<
0=
#82000
1!
1<
1=
04!
1.!
0n
1f
1c!
0^
0'
1B
1u
0d
1"!
0*!
05!
0m
0A
1S!
1~
0o
04
15
13
0"!
1C
1#!
0~
05
1/
0#!
1K!
1H!
1D!
1@!
1=!
1:!
17!
0/
0K!
0H!
0D!
0@!
0=!
0:!
07!
#84000
0!
0<
0=
#86000
1!
1<
1=
1b!
0c!
0B
1D
1A
0C
0D
1C
1E
0E
#88000
0!
0<
0=
#90000
1!
1<
1=
1c!
1B
0A
1D
0C
1E
#92000
0!
0<
0=
#94000
1!
1<
1=
1a!
1F
0b!
0c!
0B
0D
1G
1A
1C
0E
0G
0C
1E
1H
0H
#96000
0!
0<
0=
#98000
1!
1<
1=
1c!
1B
0A
1C
#100000
0!
0<
0=
#102000
1!
1<
1=
1b!
0c!
0B
1D
1A
0C
0D
1G
1C
0E
0G
1E
1H
0H
#104000
0!
0<
0=
#106000
1!
1<
1=
1c!
1B
0A
1D
0C
1G
0E
1H
#108000
0!
0<
0=
#110000
1!
1<
1=
0a!
1`!
0F
0b!
0c!
0B
0D
0G
1\
1I
1A
1C
1E
0H
0I
0C
0E
1H
1J
0J
#112000
0!
0<
0=
#114000
1!
1<
1=
1c!
1]
1B
0A
1C
#116000
0!
0<
0=
#118000
1!
1<
1=
0`!
0c!
1^
1'
0]
0B
0\
1*!
1m
1d
1A
0H
1J!
0C
#120000
0!
0<
0=
#122000
1!
1<
1=
1f!
1c!
1V!
0^
0'
12
1B
1%!
0*!
0m
0d
1p
0A
0J!
0$!
0>
1C
1&!
1q
#124000
0!
0<
0=
#126000
1!
1<
1=
1b!
0c!
0B
1D
1A
0C
0D
1C
1E
0E
#128000
0!
0<
0=
#130000
1!
1<
1=
1c!
1B
0A
1D
0C
1E
#132000
0!
0<
0=
#134000
1!
1<
1=
1a!
1F
0b!
0c!
0B
0D
1G
1A
1C
0E
0G
0C
1E
1H
0H
#136000
0!
0<
0=
#138000
1!
1<
1=
1c!
1B
0A
1C
#140000
0!
0<
0=
#142000
1!
1<
1=
1b!
0c!
0B
1D
1A
0C
0D
1G
1C
0E
0G
1E
1H
0H
#144000
0!
0<
0=
#146000
1!
1<
1=
1c!
1B
0A
1D
0C
1G
0E
1H
#148000
0!
0<
0=
#150000
1!
1<
1=
0a!
1`!
0F
0b!
0c!
0B
0D
0G
1\
1I
1A
1C
1E
0H
0I
0C
0E
1H
1J
0J
#152000
0!
0<
0=
#154000
1!
1<
1=
1c!
1]
1B
0A
1C
#156000
0!
0<
0=
#158000
1!
1<
1=
0`!
0c!
1^
1'
0]
0B
0\
1*!
1m
1d
1A
0H
1<!
0C
#160000
0!
0<
0=
#162000
1!
1<
1=
0f!
1e!
1c!
1U!
0V!
0^
0'
02
11
1B
1+!
0%!
0*!
0m
0d
1|
0p
1_
0A
0<!
0&!
1$!
1>
0q
0+!
0_
1"!
1C
1,!
1&!
1q
1`
1~
15
0,!
0`
1#!
1/
1K!
1H!
1D!
1@!
1=!
1:!
17!
#164000
0!
0<
0=
#166000
1!
1<
1=
1b!
0c!
0B
1D
1A
0C
0D
1C
1E
0E
#168000
0!
0<
0=
#170000
1!
1<
1=
1c!
1B
0A
1D
0C
1E
#172000
0!
0<
0=
#174000
1!
1<
1=
1a!
1F
0b!
0c!
0B
0D
1G
1A
1C
0E
0G
0C
1E
1H
0H
#176000
0!
0<
0=
#178000
1!
1<
1=
1c!
1B
0A
1C
#180000
0!
0<
0=
#182000
1!
1<
1=
1b!
0c!
0B
1D
1A
0C
0D
1G
1C
0E
0G
1E
1H
0H
#184000
0!
0<
0=
#186000
1!
1<
1=
1c!
1B
0A
1D
0C
1G
0E
1H
#188000
0!
0<
0=
#190000
1!
1<
1=
0a!
1`!
0F
0b!
0c!
0B
0D
0G
1\
1I
1A
1C
1E
0H
0I
0C
0E
1H
1J
0J
#192000
0!
0<
0=
#194000
1!
1<
1=
1c!
1]
1B
0A
1C
#196000
0!
0<
0=
#198000
1!
1<
1=
0`!
0c!
1^
1'
0]
0B
0\
1*!
1m
1d
1A
0H
16!
0C
18!
1M!
1B!
1R!
1+
#200000
0!
0<
0=
#202000
1!
1<
1=
1f!
1c!
1V!
0^
0'
12
1B
1%!
0*!
0m
0d
1p
0A
06!
0$!
0>
1+!
1_
1C
0&!
0q
1,!
1`
#204000
0!
0<
0=
#206000
1!
1<
1=
1b!
0c!
0B
1D
1A
0C
0D
1C
1E
0E
#208000
0!
0<
0=
#210000
1!
1<
1=
1c!
1B
0A
1D
0C
1E
#212000
0!
0<
0=
#214000
1!
1<
1=
1a!
1F
0b!
0c!
0B
0D
1G
1A
1C
0E
0G
0C
1E
1H
0H
#216000
0!
0<
0=
#218000
1!
1<
1=
1c!
1B
0A
1C
#220000
0!
0<
0=
#222000
1!
1<
1=
1b!
0c!
0B
1D
1A
0C
0D
1G
1C
0E
0G
1E
1H
0H
#224000
0!
0<
0=
#226000
1!
1<
1=
1c!
1B
0A
1D
0C
1G
0E
1H
#228000
0!
0<
0=
#230000
1!
1<
1=
0a!
1`!
0F
0b!
0c!
0B
0D
0G
1\
1I
1A
1C
1E
0H
0I
0C
0E
1H
1J
0J
#232000
0!
0<
0=
#234000
1!
1<
1=
1c!
1]
1B
0A
1C
#236000
0!
0<
0=
#238000
1!
1<
1=
0`!
0c!
1^
1'
0]
0B
0\
1*!
1m
1d
1A
0H
1G!
0C
1I!
#240000
0!
0<
0=
#242000
1!
1<
1=
0f!
1d!
0e!
1c!
0U!
0V!
1T!
0^
0'
10
02
01
1B
0+!
1'!
0%!
0*!
0m
0d
0"!
1a
0|
0p
0_
0A
0G!
1&!
0,!
1$!
0~
0`
1>
1q
05
0'!
1(!
1b
0a
1C
1,!
0&!
0q
1`
0#!
0/
0(!
0b
1c
1)!
0K!
0H!
0D!
0@!
0=!
0:!
07!
0c
0)!
#244000
0!
0<
0=
#246000
1!
1<
1=
1b!
0c!
0B
1D
1A
0C
0D
1C
1E
0E
#248000
0!
0<
0=
#250000
1!
1<
1=
1c!
1B
0A
1D
0C
1E
#252000
0!
0<
0=
#254000
1!
1<
1=
1a!
1F
0b!
0c!
0B
0D
1G
1A
1C
0E
0G
0C
1E
1H
0H
#256000
0!
0<
0=
#258000
1!
1<
1=
1c!
1B
0A
1C
#260000
0!
0<
0=
#262000
1!
1<
1=
1b!
0c!
0B
1D
1A
0C
0D
1G
1C
0E
0G
1E
1H
0H
#264000
0!
0<
0=
#266000
1!
1<
1=
1c!
1B
0A
1D
0C
1G
0E
1H
#268000
0!
0<
0=
#270000
1!
1<
1=
0a!
1`!
0F
0b!
0c!
0B
0D
0G
1\
1I
1A
1C
1E
0H
0I
0C
0E
1H
1J
0J
#272000
0!
0<
0=
#274000
1!
1<
1=
1c!
1]
1B
0A
1C
#276000
0!
0<
0=
#278000
1!
1<
1=
0`!
0c!
1^
1'
0]
0B
0\
1*!
1m
1d
1A
0H
1C!
0C
#280000
0!
0<
0=
#282000
1!
1<
1=
1f!
1c!
1V!
0^
0'
12
1B
1%!
0*!
0m
0d
1p
0A
0C!
0$!
0>
1C
1&!
1q
#284000
0!
0<
0=
#286000
1!
1<
1=
1b!
0c!
0B
1D
1A
0C
0D
1C
1E
0E
#288000
0!
0<
0=
#290000
1!
1<
1=
1c!
1B
0A
1D
0C
1E
#292000
0!
0<
0=
#294000
1!
1<
1=
1a!
1F
0b!
0c!
0B
0D
1G
1A
1C
0E
0G
0C
1E
1H
0H
#296000
0!
0<
0=
#298000
1!
1<
1=
1c!
1B
0A
1C
#300000
0!
0<
0=
#302000
1!
1<
1=
1b!
0c!
0B
1D
1A
0C
0D
1G
1C
0E
0G
1E
1H
0H
#304000
0!
0<
0=
#306000
1!
1<
1=
1c!
1B
0A
1D
0C
1G
0E
1H
#308000
0!
0<
0=
#310000
1!
1<
1=
0a!
1`!
0F
0b!
0c!
0B
0D
0G
1\
1I
1A
1C
1E
0H
0I
0C
0E
1H
1J
0J
#312000
0!
0<
0=
#314000
1!
1<
1=
1c!
1]
1B
0A
1C
#316000
0!
0<
0=
#318000
1!
1<
1=
0`!
0c!
1^
1'
0]
0B
0\
1*!
1m
1d
1A
0H
1?!
0C
#320000
0!
0<
0=
#322000
1!
1<
1=
0f!
1e!
1c!
1U!
0V!
0^
0'
02
11
1B
1)!
1+!
0%!
0*!
0m
0d
1}
1|
1c
0p
1_
0A
0?!
0&!
1$!
1>
0q
1'!
0+!
0_
1a
1"!
1C
0,!
1&!
1q
0`
1~
15
1(!
0'!
0a
1b
1,!
1`
1#!
1/
0(!
0b
1K!
1H!
1D!
1@!
1=!
1:!
17!
#324000
0!
0<
0=
#326000
1!
1<
1=
1b!
0c!
0B
1D
1A
0C
0D
1C
1E
0E
#328000
0!
0<
0=
#330000
1!
1<
1=
1c!
1B
0A
1D
0C
1E
#332000
0!
0<
0=
#334000
1!
1<
1=
1a!
1F
0b!
0c!
0B
0D
1G
1A
1C
0E
0G
0C
1E
1H
0H
#336000
0!
0<
0=
#338000
1!
1<
1=
1c!
1B
0A
1C
#340000
0!
0<
0=
#342000
1!
1<
1=
1b!
0c!
0B
1D
1A
0C
0D
1G
1C
0E
0G
1E
1H
0H
#344000
0!
0<
0=
#346000
1!
1<
1=
1c!
1B
0A
1D
0C
1G
0E
1H
#348000
0!
0<
0=
#350000
1!
1<
1=
0a!
1`!
0F
0b!
0c!
0B
0D
0G
1\
1I
1A
1C
1E
0H
0I
0C
0E
1H
1J
0J
#352000
0!
0<
0=
#354000
1!
1<
1=
1c!
1]
1B
0A
1C
#356000
0!
0<
0=
#358000
1!
1<
1=
0`!
0c!
1^
1'
0]
0B
0\
1*!
1m
1g
1d
1A
0H
19!
1/!
0-!
0e
0C
1;!
0M!
1F!
0B!
1O!
1(
#360000
0!
0<
0=
#362000
1!
1<
1=
10!
0.!
0d!
0e!
1h
0f
1c!
0U!
0T!
0^
0'
00
01
1B
0u
0d
0)!
0*!
0m
0}
0c
0|
0A
0S!
09!
0&!
0,!
0`
0q
03
1C
#364000
0!
0<
0=
#366000
1!
1<
1=
1b!
0c!
0B
1D
1A
0C
0D
1C
1E
0E
#368000
0!
0<
0=
#370000
1!
1<
1=
1c!
1B
0A
1D
0C
1E
#372000
0!
0<
0=
#374000
1!
1<
1=
1a!
1F
0b!
0c!
0B
0D
1G
1A
1C
0E
0G
0C
1E
1H
0H
#376000
0!
0<
0=
#378000
1!
1<
1=
1c!
1B
0A
1C
#380000
0!
0<
0=
#382000
1!
1<
1=
1b!
0c!
0B
1D
1A
0C
0D
1G
1C
0E
0G
1E
1H
0H
#384000
0!
0<
0=
#386000
1!
1<
1=
1c!
1B
0A
1D
0C
1G
0E
1H
#388000
0!
0<
0=
#390000
1!
1<
1=
0a!
1`!
0F
0b!
0c!
0B
0D
0G
1\
1I
1A
1C
1E
0H
0I
0C
0E
1H
1J
0J
#392000
0!
0<
0=
#394000
1!
1<
1=
1c!
1]
1B
0A
1C
#396000
0!
0<
0=
#398000
1!
1<
1=
0`!
0c!
1^
1'
0]
0B
0\
1m
0g
1A
0H
01!
0/!
0j
0C
#400000
0!
0<
0=
#402000
1!
1<
1=
02!
00!
0k
0h
1c!
0^
0'
1B
0m
0A
1C
#404000
0!
0<
0=
#406000
1!
1<
1=
1b!
0c!
0B
1D
1A
0C
0D
1C
1E
0E
#408000
0!
0<
0=
#410000
1!
1<
1=
1c!
1B
0A
1D
0C
1E
#412000
0!
0<
0=
#414000
1!
1<
1=
1a!
1F
0b!
0c!
0B
0D
1G
1A
1C
0E
0G
0C
1E
1H
0H
#416000
0!
0<
0=
#418000
1!
1<
1=
1c!
1B
0A
1C
#420000
0!
0<
0=
#422000
1!
1<
1=
1b!
0c!
0B
1D
1A
0C
0D
1G
1C
0E
0G
1E
1H
0H
#424000
0!
0<
0=
#426000
1!
1<
1=
1c!
1B
0A
1D
0C
1G
0E
1H
#428000
0!
0<
0=
#430000
1!
1<
1=
0a!
1`!
0F
0b!
0c!
0B
0D
0G
1\
1I
1A
1C
1E
0H
0I
0C
0E
1H
1J
0J
#432000
0!
0<
0=
#434000
1!
1<
1=
1c!
1]
1B
0A
1C
#436000
0!
0<
0=
#438000
1!
1<
1=
0`!
0c!
1^
1'
0]
0B
0\
1m
1A
0H
0C
#440000
0!
0<
0=
#442000
1!
1<
1=
1c!
0^
0'
1B
0m
0A
1C
#444000
0!
0<
0=
#446000
1!
1<
1=
1b!
0c!
0B
1D
1A
0C
0D
1C
1E
0E
#448000
0!
0<
0=
#450000
1!
1<
1=
1c!
1B
0A
1D
0C
1E
#452000
0!
0<
0=
#454000
1!
1<
1=
1a!
1F
0b!
0c!
0B
0D
1G
1A
1C
0E
0G
0C
1E
1H
0H
#456000
0!
0<
0=
#458000
1!
1<
1=
1c!
1B
0A
1C
#460000
0!
0<
0=
#462000
1!
1<
1=
1b!
0c!
0B
1D
1A
0C
0D
1G
1C
0E
0G
1E
1H
0H
#464000
0!
0<
0=
#466000
1!
1<
1=
1c!
1B
0A
1D
0C
1G
0E
1H
#468000
0!
0<
0=
#470000
1!
1<
1=
0a!
1`!
0F
0b!
0c!
0B
0D
0G
1\
1I
1A
1C
1E
0H
0I
0C
0E
1H
1J
0J
#472000
0!
0<
0=
#474000
1!
1<
1=
1c!
1]
1B
0A
1C
#476000
0!
0<
0=
#478000
1!
1<
1=
0`!
0c!
1^
1'
0]
0B
0\
1m
1A
0H
0C
#480000
0!
0<
0=
#482000
1!
1<
1=
1c!
0^
0'
1B
0m
0A
1C
#484000
0!
0<
0=
#486000
1!
1<
1=
1b!
0c!
0B
1D
1A
0C
0D
1C
1E
0E
#488000
0!
0<
0=
#490000
1!
1<
1=
1c!
1B
0A
1D
0C
1E
#492000
0!
0<
0=
#494000
1!
1<
1=
1a!
1F
0b!
0c!
0B
0D
1G
1A
1C
0E
0G
0C
1E
1H
0H
#496000
0!
0<
0=
#498000
1!
1<
1=
1c!
1B
0A
1C
#500000
0!
0<
0=
#502000
1!
1<
1=
1b!
0c!
0B
1D
1A
0C
0D
1G
1C
0E
0G
1E
1H
0H
#504000
0!
0<
0=
#506000
1!
1<
1=
1c!
1B
0A
1D
0C
1G
0E
1H
#508000
0!
0<
0=
#510000
1!
1<
1=
0a!
1`!
0F
0b!
0c!
0B
0D
0G
1\
1I
1A
1C
1E
0H
0I
0C
0E
1H
1J
0J
#512000
0!
0<
0=
#514000
1!
1<
1=
1c!
1]
1B
0A
1C
#516000
0!
0<
0=
#518000
1!
1<
1=
0`!
0c!
1^
1'
0]
0B
0\
1m
1A
0H
0C
